<?xml version="1.0" encoding="utf-8"  standalone="no"?>
<!DOCTYPE svg PUBLIC "-//W3C//DTD SVG 1.1//EN" 
 "http://www.w3.org/Graphics/SVG/1.1/DTD/svg11.dtd">
<svg 
 width="600" height="480" 
 viewBox="0 0 600 480"
 xmlns="http://www.w3.org/2000/svg"
 xmlns:xlink="http://www.w3.org/1999/xlink"
>

<title>Gnuplot</title>
<desc>Produced by GNUPLOT 4.6 patchlevel 4 </desc>

<g id="gnuplot_canvas">

<rect x="0" y="0" width="600" height="480" fill="none"/>
<defs>

	<circle id='gpDot' r='0.5' stroke-width='0.5'/>
	<path id='gpPt0' stroke-width='0.190' stroke='currentColor' d='M-1,0 h2 M0,-1 v2'/>
	<path id='gpPt1' stroke-width='0.190' stroke='currentColor' d='M-1,-1 L1,1 M1,-1 L-1,1'/>
	<path id='gpPt2' stroke-width='0.190' stroke='currentColor' d='M-1,0 L1,0 M0,-1 L0,1 M-1,-1 L1,1 M-1,1 L1,-1'/>
	<rect id='gpPt3' stroke-width='0.190' stroke='currentColor' x='-1' y='-1' width='2' height='2'/>
	<rect id='gpPt4' stroke-width='0.190' stroke='currentColor' fill='currentColor' x='-1' y='-1' width='2' height='2'/>
	<circle id='gpPt5' stroke-width='0.190' stroke='currentColor' cx='0' cy='0' r='1'/>
	<use xlink:href='#gpPt5' id='gpPt6' fill='currentColor' stroke='none'/>
	<path id='gpPt7' stroke-width='0.190' stroke='currentColor' d='M0,-1.33 L-1.33,0.67 L1.33,0.67 z'/>
	<use xlink:href='#gpPt7' id='gpPt8' fill='currentColor' stroke='none'/>
	<use xlink:href='#gpPt7' id='gpPt9' stroke='currentColor' transform='rotate(180)'/>
	<use xlink:href='#gpPt9' id='gpPt10' fill='currentColor' stroke='none'/>
	<use xlink:href='#gpPt3' id='gpPt11' stroke='currentColor' transform='rotate(45)'/>
	<use xlink:href='#gpPt11' id='gpPt12' fill='currentColor' stroke='none'/>
</defs>
<g style="fill:none; color:white; stroke:currentColor; stroke-width:1.00; stroke-linecap:butt; stroke-linejoin:miter">
</g>
<g style="fill:none; color:black; stroke:currentColor; stroke-width:1.00; stroke-linecap:butt; stroke-linejoin:miter">
</g>
<g style="fill:none; color:gray; stroke:currentColor; stroke-width:1.00; stroke-linecap:butt; stroke-linejoin:miter">
	<path stroke='gray' stroke-dasharray=' 2,4' class="gridline"  d='M84.0,412.8 L570.8,412.8  h0.01'/></g>
<g style="fill:none; color:black; stroke:currentColor; stroke-width:1.00; stroke-linecap:butt; stroke-linejoin:miter">
	<path stroke='black'  d='M84.0,412.8 L94.5,412.8 M570.8,412.8 L560.3,412.8  h0.01'/>	<g transform="translate(74.3,418.0)" style="stroke:none; fill:black; font-family:Arial; font-size:14.00pt; text-anchor:end">
		<text> 0</text>
	</g>
</g>
<g style="fill:none; color:gray; stroke:currentColor; stroke-width:1.00; stroke-linecap:butt; stroke-linejoin:miter">
	<path stroke='gray' stroke-dasharray=' 2,4' class="gridline"  d='M84.0,369.5 L570.8,369.5  h0.01'/></g>
<g style="fill:none; color:black; stroke:currentColor; stroke-width:1.00; stroke-linecap:butt; stroke-linejoin:miter">
	<path stroke='black'  d='M84.0,369.5 L94.5,369.5 M570.8,369.5 L560.3,369.5  h0.01'/>	<g transform="translate(74.3,374.7)" style="stroke:none; fill:black; font-family:Arial; font-size:14.00pt; text-anchor:end">
		<text> 0.2</text>
	</g>
</g>
<g style="fill:none; color:gray; stroke:currentColor; stroke-width:1.00; stroke-linecap:butt; stroke-linejoin:miter">
	<path stroke='gray' stroke-dasharray=' 2,4' class="gridline"  d='M84.0,326.1 L570.8,326.1  h0.01'/></g>
<g style="fill:none; color:black; stroke:currentColor; stroke-width:1.00; stroke-linecap:butt; stroke-linejoin:miter">
	<path stroke='black'  d='M84.0,326.1 L94.5,326.1 M570.8,326.1 L560.3,326.1  h0.01'/>	<g transform="translate(74.3,331.3)" style="stroke:none; fill:black; font-family:Arial; font-size:14.00pt; text-anchor:end">
		<text> 0.4</text>
	</g>
</g>
<g style="fill:none; color:gray; stroke:currentColor; stroke-width:1.00; stroke-linecap:butt; stroke-linejoin:miter">
	<path stroke='gray' stroke-dasharray=' 2,4' class="gridline"  d='M84.0,282.8 L570.8,282.8  h0.01'/></g>
<g style="fill:none; color:black; stroke:currentColor; stroke-width:1.00; stroke-linecap:butt; stroke-linejoin:miter">
	<path stroke='black'  d='M84.0,282.8 L94.5,282.8 M570.8,282.8 L560.3,282.8  h0.01'/>	<g transform="translate(74.3,288.0)" style="stroke:none; fill:black; font-family:Arial; font-size:14.00pt; text-anchor:end">
		<text> 0.6</text>
	</g>
</g>
<g style="fill:none; color:gray; stroke:currentColor; stroke-width:1.00; stroke-linecap:butt; stroke-linejoin:miter">
	<path stroke='gray' stroke-dasharray=' 2,4' class="gridline"  d='M84.0,239.5 L570.8,239.5  h0.01'/></g>
<g style="fill:none; color:black; stroke:currentColor; stroke-width:1.00; stroke-linecap:butt; stroke-linejoin:miter">
	<path stroke='black'  d='M84.0,239.5 L94.5,239.5 M570.8,239.5 L560.3,239.5  h0.01'/>	<g transform="translate(74.3,244.7)" style="stroke:none; fill:black; font-family:Arial; font-size:14.00pt; text-anchor:end">
		<text> 0.8</text>
	</g>
</g>
<g style="fill:none; color:gray; stroke:currentColor; stroke-width:1.00; stroke-linecap:butt; stroke-linejoin:miter">
	<path stroke='gray' stroke-dasharray=' 2,4' class="gridline"  d='M84.0,196.1 L570.8,196.1  h0.01'/></g>
<g style="fill:none; color:black; stroke:currentColor; stroke-width:1.00; stroke-linecap:butt; stroke-linejoin:miter">
	<path stroke='black'  d='M84.0,196.1 L94.5,196.1 M570.8,196.1 L560.3,196.1  h0.01'/>	<g transform="translate(74.3,201.3)" style="stroke:none; fill:black; font-family:Arial; font-size:14.00pt; text-anchor:end">
		<text> 1</text>
	</g>
</g>
<g style="fill:none; color:gray; stroke:currentColor; stroke-width:1.00; stroke-linecap:butt; stroke-linejoin:miter">
	<path stroke='gray' stroke-dasharray=' 2,4' class="gridline"  d='M84.0,152.8 L570.8,152.8  h0.01'/></g>
<g style="fill:none; color:black; stroke:currentColor; stroke-width:1.00; stroke-linecap:butt; stroke-linejoin:miter">
	<path stroke='black'  d='M84.0,152.8 L94.5,152.8 M570.8,152.8 L560.3,152.8  h0.01'/>	<g transform="translate(74.3,158.0)" style="stroke:none; fill:black; font-family:Arial; font-size:14.00pt; text-anchor:end">
		<text> 1.2</text>
	</g>
</g>
<g style="fill:none; color:gray; stroke:currentColor; stroke-width:1.00; stroke-linecap:butt; stroke-linejoin:miter">
	<path stroke='gray' stroke-dasharray=' 2,4' class="gridline"  d='M84.0,109.5 L570.8,109.5  h0.01'/></g>
<g style="fill:none; color:black; stroke:currentColor; stroke-width:1.00; stroke-linecap:butt; stroke-linejoin:miter">
	<path stroke='black'  d='M84.0,109.5 L94.5,109.5 M570.8,109.5 L560.3,109.5  h0.01'/>	<g transform="translate(74.3,114.7)" style="stroke:none; fill:black; font-family:Arial; font-size:14.00pt; text-anchor:end">
		<text> 1.4</text>
	</g>
</g>
<g style="fill:none; color:gray; stroke:currentColor; stroke-width:1.00; stroke-linecap:butt; stroke-linejoin:miter">
	<path stroke='gray' stroke-dasharray=' 2,4' class="gridline"  d='M84.0,66.1 L570.8,66.1  h0.01'/></g>
<g style="fill:none; color:black; stroke:currentColor; stroke-width:1.00; stroke-linecap:butt; stroke-linejoin:miter">
	<path stroke='black'  d='M84.0,66.1 L94.5,66.1 M570.8,66.1 L560.3,66.1  h0.01'/>	<g transform="translate(74.3,71.3)" style="stroke:none; fill:black; font-family:Arial; font-size:14.00pt; text-anchor:end">
		<text> 1.6</text>
	</g>
</g>
<g style="fill:none; color:gray; stroke:currentColor; stroke-width:1.00; stroke-linecap:butt; stroke-linejoin:miter">
	<path stroke='gray' stroke-dasharray=' 2,4' class="gridline"  d='M84.0,22.8 L570.8,22.8  h0.01'/></g>
<g style="fill:none; color:black; stroke:currentColor; stroke-width:1.00; stroke-linecap:butt; stroke-linejoin:miter">
	<path stroke='black'  d='M84.0,22.8 L94.5,22.8 M570.8,22.8 L560.3,22.8  h0.01'/>	<g transform="translate(74.3,28.0)" style="stroke:none; fill:black; font-family:Arial; font-size:14.00pt; text-anchor:end">
		<text> 1.8</text>
	</g>
</g>
<g style="fill:none; color:gray; stroke:currentColor; stroke-width:1.00; stroke-linecap:butt; stroke-linejoin:miter">
	<path stroke='gray' stroke-dasharray=' 2,4' class="gridline"  d='M570.8,412.8 L570.8,19.5  h0.01'/></g>
<g style="fill:none; color:black; stroke:currentColor; stroke-width:1.00; stroke-linecap:butt; stroke-linejoin:miter">
	<path stroke='black'  d='M570.8,412.8 L570.8,402.3 M570.8,19.5 L570.8,30.0  h0.01'/>	<g transform="translate(570.8,439.0)" style="stroke:none; fill:black; font-family:Arial; font-size:14.00pt; text-anchor:middle">
		<text>1</text>
	</g>
</g>
<g style="fill:none; color:gray; stroke:currentColor; stroke-width:1.00; stroke-linecap:butt; stroke-linejoin:miter">
	<path stroke='gray' stroke-dasharray=' 2,4' class="gridline"  d='M468.3,412.8 L468.3,19.5  h0.01'/></g>
<g style="fill:none; color:black; stroke:currentColor; stroke-width:1.00; stroke-linecap:butt; stroke-linejoin:miter">
	<path stroke='black'  d='M468.3,412.8 L468.3,402.3 M468.3,19.5 L468.3,30.0  h0.01'/>	<g transform="translate(468.3,439.0)" style="stroke:none; fill:black; font-family:Arial; font-size:14.00pt; text-anchor:middle">
		<text>2</text>
	</g>
</g>
<g style="fill:none; color:gray; stroke:currentColor; stroke-width:1.00; stroke-linecap:butt; stroke-linejoin:miter">
	<path stroke='gray' stroke-dasharray=' 2,4' class="gridline"  d='M365.8,412.8 L365.8,19.5  h0.01'/></g>
<g style="fill:none; color:black; stroke:currentColor; stroke-width:1.00; stroke-linecap:butt; stroke-linejoin:miter">
	<path stroke='black'  d='M365.8,412.8 L365.8,402.3 M365.8,19.5 L365.8,30.0  h0.01'/>	<g transform="translate(365.8,439.0)" style="stroke:none; fill:black; font-family:Arial; font-size:14.00pt; text-anchor:middle">
		<text>4</text>
	</g>
</g>
<g style="fill:none; color:gray; stroke:currentColor; stroke-width:1.00; stroke-linecap:butt; stroke-linejoin:miter">
	<path stroke='gray' stroke-dasharray=' 2,4' class="gridline"  d='M263.3,412.8 L263.3,19.5  h0.01'/></g>
<g style="fill:none; color:black; stroke:currentColor; stroke-width:1.00; stroke-linecap:butt; stroke-linejoin:miter">
	<path stroke='black'  d='M263.3,412.8 L263.3,402.3 M263.3,19.5 L263.3,30.0  h0.01'/>	<g transform="translate(263.3,439.0)" style="stroke:none; fill:black; font-family:Arial; font-size:14.00pt; text-anchor:middle">
		<text>8</text>
	</g>
</g>
<g style="fill:none; color:gray; stroke:currentColor; stroke-width:1.00; stroke-linecap:butt; stroke-linejoin:miter">
	<path stroke='gray' stroke-dasharray=' 2,4' class="gridline"  d='M160.9,412.8 L160.9,19.5  h0.01'/></g>
<g style="fill:none; color:black; stroke:currentColor; stroke-width:1.00; stroke-linecap:butt; stroke-linejoin:miter">
	<path stroke='black'  d='M160.9,412.8 L160.9,402.3 M160.9,19.5 L160.9,30.0  h0.01'/>	<g transform="translate(160.9,439.0)" style="stroke:none; fill:black; font-family:Arial; font-size:14.00pt; text-anchor:middle">
		<text>16</text>
	</g>
	<path stroke='black'  d='M84.0,19.5 L84.0,412.8 L570.8,412.8 L570.8,19.5 L84.0,19.5 Z  h0.01'/>	<g transform="translate(20.5,216.2) rotate(270)" style="stroke:none; fill:black; font-family:Arial; font-size:14.00pt; text-anchor:middle">
		<text>Throughput (Mbps)</text>
	</g>
	<g transform="translate(327.4,470.5)" style="stroke:none; fill:black; font-family:Arial; font-size:14.00pt; text-anchor:middle">
		<text>Queueing delay (ms)</text>
	</g>
	<g transform="translate(243.1,187.5)" style="stroke:none; fill:red; font-family:Arial; font-size:14.00pt; text-anchor:start">
		<text>Cubic</text>
	</g>
	<use xlink:href='#gpPt0' transform='translate(237.9,187.5) scale(5.25)' color='black'/>
	<g transform="translate(423.8,410.6)" style="stroke:none; fill:red; font-family:Arial; font-size:14.00pt; text-anchor:start">
		<text>Vegas</text>
	</g>
	<use xlink:href='#gpPt0' transform='translate(418.6,410.6) scale(5.25)' color='black'/>
	<g transform="translate(125.9,142.0)" style="stroke:none; fill:red; font-family:Arial; font-size:14.00pt; text-anchor:start">
		<text>Cubic/sfqCoDel</text>
	</g>
	<use xlink:href='#gpPt0' transform='translate(120.7,142.0) scale(5.25)' color='black'/>
	<g transform="translate(537.2,172.3)" style="stroke:none; fill:red; font-family:Arial; font-size:14.00pt; text-anchor:start">
		<text>RemyCC-10</text>
	</g>
	<use xlink:href='#gpPt0' transform='translate(532.0,172.3) scale(5.25)' color='black'/>
	<g transform="translate(497.5,98.6)" style="stroke:none; fill:red; font-family:Arial; font-size:14.00pt; text-anchor:start">
		<text>RemyCC-1</text>
	</g>
	<use xlink:href='#gpPt0' transform='translate(492.3,98.6) scale(5.25)' color='black'/>
	<g transform="translate(404.0,38.0)" style="stroke:none; fill:red; font-family:Arial; font-size:14.00pt; text-anchor:start">
		<text>RemyCC-0.1</text>
	</g>
	<use xlink:href='#gpPt0' transform='translate(398.8,38.0) scale(5.25)' color='black'/>
	<g transform="translate(209.8,142.0)" style="stroke:none; fill:red; font-family:Arial; font-size:14.00pt; text-anchor:start">
		<text>XCP</text>
	</g>
	<use xlink:href='#gpPt0' transform='translate(204.6,142.0) scale(5.25)' color='black'/>
</g>
	<g id="gnuplot_plot_1" ><title>gnuplot_plot_1</title>
<g style="fill:none; color:red; stroke:currentColor; stroke-width:1.00; stroke-linecap:butt; stroke-linejoin:miter">
	<path stroke='red'  d='M270.8,213.2 L270.8,213.4 L270.8,213.6 L270.7,213.7 L270.7,213.9 L270.6,214.1 L270.6,214.3 L270.5,214.4 
		L270.5,214.6 L270.4,214.7 L270.4,214.9 L270.3,215.1 L270.2,215.2 L270.2,215.4 L270.1,215.5 L270.0,215.7 
		L269.9,215.8 L269.9,216.0 L269.8,216.1 L269.7,216.2 L269.6,216.4 L269.5,216.5 L269.4,216.6 L269.3,216.8 
		L269.2,216.9 L269.1,217.0 L269.0,217.1 L268.9,217.3 L268.7,217.4 L268.6,217.5 L268.5,217.6 L268.4,217.7 
		L268.3,217.8 L268.1,217.9 L268.0,218.0 L267.9,218.1 L267.7,218.2 L267.6,218.3 L267.4,218.4 L267.3,218.5 
		L267.1,218.5 L267.0,218.6 L266.8,218.7 L266.7,218.8 L266.5,218.8 L266.3,218.9 L266.2,219.0 L266.0,219.0 
		L265.8,219.1 L265.6,219.2 L265.5,219.2 L265.3,219.3 L265.1,219.3 L264.9,219.4 L264.7,219.4 L264.5,219.4 
		L264.3,219.5 L264.1,219.5 L263.9,219.6 L263.7,219.6 L263.5,219.6 L263.3,219.6 L263.1,219.7 L262.9,219.7 
		L262.7,219.7 L262.5,219.7 L262.2,219.7 L262.0,219.7 L261.8,219.7 L261.6,219.7 L261.3,219.7 L261.1,219.7 
		L260.9,219.7 L260.6,219.7 L260.4,219.7 L260.1,219.7 L259.9,219.6 L259.6,219.6 L259.4,219.6 L259.1,219.6 
		L258.9,219.5 L258.6,219.5 L258.4,219.5 L258.1,219.4 L257.9,219.4 L257.6,219.3 L257.3,219.3 L257.0,219.3 
		L256.8,219.2 L256.5,219.1 L256.2,219.1 L255.9,219.0 L255.7,219.0 L255.4,218.9 L255.1,218.8 L254.8,218.8 
		L254.5,218.7 L254.2,218.6 L253.9,218.5 L253.7,218.4 L253.4,218.3 L253.1,218.3 L252.8,218.2 L252.5,218.1 
		L252.2,218.0 L251.9,217.9 L251.6,217.8 L251.2,217.7 L250.9,217.6 L250.6,217.5 L250.3,217.3 L250.0,217.2 
		L249.7,217.1 L249.4,217.0 L249.0,216.9 L248.7,216.7 L248.4,216.6 L248.1,216.5 L247.8,216.3 L247.4,216.2 
		L247.1,216.1 L246.8,215.9 L246.4,215.8 L246.1,215.6 L245.8,215.5 L245.4,215.3 L245.1,215.2 L244.8,215.0 
		L244.4,214.9 L244.1,214.7 L243.8,214.5 L243.4,214.4 L243.1,214.2 L242.7,214.0 L242.4,213.9 L242.0,213.7 
		L241.7,213.5 L241.4,213.3 L241.0,213.1 L240.7,212.9 L240.3,212.8 L240.0,212.6 L239.6,212.4 L239.3,212.2 
		L238.9,212.0 L238.5,211.8 L238.2,211.6 L237.8,211.4 L237.5,211.2 L237.1,211.0 L236.8,210.8 L236.4,210.5 
		L236.1,210.3 L235.7,210.1 L235.3,209.9 L235.0,209.7 L234.6,209.4 L234.3,209.2 L233.9,209.0 L233.5,208.8 
		L233.2,208.5 L232.8,208.3 L232.5,208.1 L232.1,207.8 L231.7,207.6 L231.4,207.3 L231.0,207.1 L230.7,206.9 
		L230.3,206.6 L229.9,206.4 L229.6,206.1 L229.2,205.9 L228.8,205.6 L228.5,205.3 L228.1,205.1 L227.8,204.8 
		L227.4,204.6 L227.0,204.3 L226.7,204.0 L226.3,203.8 L225.9,203.5 L225.6,203.2 L225.2,203.0 L224.9,202.7 
		L224.5,202.4 L224.1,202.2 L223.8,201.9 L223.4,201.6 L223.1,201.3 L222.7,201.0 L222.4,200.8 L222.0,200.5 
		L221.6,200.2 L221.3,199.9 L220.9,199.6 L220.6,199.3 L220.2,199.0 L219.9,198.7 L219.5,198.4 L219.2,198.1 
		L218.8,197.9 L218.5,197.6 L218.1,197.3 L217.8,197.0 L217.4,196.7 L217.1,196.4 L216.7,196.1 L216.4,195.8 
		L216.0,195.4 L215.7,195.1 L215.4,194.8 L215.0,194.5 L214.7,194.2 L214.3,193.9 L214.0,193.6 L213.7,193.3 
		L213.3,193.0 L213.0,192.7 L212.7,192.4 L212.3,192.0 L212.0,191.7 L211.7,191.4 L211.4,191.1 L211.0,190.8 
		L210.7,190.5 L210.4,190.1 L210.1,189.8 L209.7,189.5 L209.4,189.2 L209.1,188.9 L208.8,188.5 L208.5,188.2 
		L208.2,187.9 L207.9,187.6 L207.5,187.3 L207.2,186.9 L206.9,186.6 L206.6,186.3 L206.3,186.0 L206.0,185.6 
		L205.7,185.3 L205.4,185.0 L205.1,184.7 L204.8,184.3 L204.6,184.0 L204.3,183.7 L204.0,183.4 L203.7,183.0 
		L203.4,182.7 L203.1,182.4 L202.8,182.1 L202.6,181.7 L202.3,181.4 L202.0,181.1 L201.8,180.8 L201.5,180.4 
		L201.2,180.1 L201.0,179.8 L200.7,179.5 L200.4,179.1 L200.2,178.8 L199.9,178.5 L199.7,178.2 L199.4,177.8 
		L199.2,177.5 L198.9,177.2 L198.7,176.9 L198.4,176.6 L198.2,176.2 L198.0,175.9 L197.7,175.6 L197.5,175.3 
		L197.3,175.0 L197.0,174.6 L196.8,174.3 L196.6,174.0 L196.4,173.7 L196.1,173.4 L195.9,173.1 L195.7,172.7 
		L195.5,172.4 L195.3,172.1 L195.1,171.8 L194.9,171.5 L194.7,171.2 L194.5,170.9 L194.3,170.6 L194.1,170.3 
		L193.9,169.9 L193.7,169.6 L193.6,169.3 L193.4,169.0 L193.2,168.7 L193.0,168.4 L192.8,168.1 L192.7,167.8 
		L192.5,167.5 L192.3,167.2 L192.2,166.9 L192.0,166.6 L191.9,166.3 L191.7,166.1 L191.6,165.8 L191.4,165.5 
		L191.3,165.2 L191.1,164.9 L191.0,164.6 L190.9,164.3 L190.7,164.0 L190.6,163.8 L190.5,163.5 L190.3,163.2 
		L190.2,162.9 L190.1,162.6 L190.0,162.4 L189.9,162.1 L189.8,161.8 L189.7,161.6 L189.6,161.3 L189.5,161.0 
		L189.4,160.7 L189.3,160.5 L189.2,160.2 L189.1,160.0 L189.0,159.7 L188.9,159.4 L188.9,159.2 L188.8,158.9 
		L188.7,158.7 L188.6,158.4 L188.6,158.2 L188.5,157.9 L188.5,157.7 L188.4,157.5 L188.3,157.2 L188.3,157.0 
		L188.3,156.7 L188.2,156.5 L188.2,156.3 L188.1,156.0 L188.1,155.8 L188.1,155.6 L188.0,155.4 L188.0,155.1 
		L188.0,154.9 L188.0,154.7 L188.0,154.5 L187.9,154.3 L187.9,154.1 L187.9,153.8 L187.9,153.6 L187.9,153.4 
		L187.9,153.2 L187.9,153.0 L188.0,152.8 L188.0,152.6 L188.0,152.4 L188.0,152.3 L188.0,152.1 L188.0,151.9 
		L188.1,151.7 L188.1,151.5 L188.1,151.3 L188.2,151.1 L188.2,151.0 L188.3,150.8 L188.3,150.6 L188.4,150.5 
		L188.4,150.3 L188.5,150.1 L188.5,150.0 L188.6,149.8 L188.7,149.7 L188.7,149.5 L188.8,149.3 L188.9,149.2 
		L189.0,149.1 L189.1,148.9 L189.1,148.8 L189.2,148.6 L189.3,148.5 L189.4,148.4 L189.5,148.2 L189.6,148.1 
		L189.7,148.0 L189.8,147.9 L189.9,147.7 L190.0,147.6 L190.2,147.5 L190.3,147.4 L190.4,147.3 L190.5,147.2 
		L190.6,147.1 L190.8,147.0 L190.9,146.9 L191.0,146.8 L191.2,146.7 L191.3,146.6 L191.5,146.5 L191.6,146.4 
		L191.8,146.3 L191.9,146.3 L192.1,146.2 L192.2,146.1 L192.4,146.0 L192.6,146.0 L192.7,145.9 L192.9,145.8 
		L193.1,145.8 L193.3,145.7 L193.4,145.7 L193.6,145.6 L193.8,145.6 L194.0,145.5 L194.2,145.5 L194.4,145.4 
		L194.6,145.4 L194.8,145.4 L195.0,145.3 L195.2,145.3 L195.4,145.3 L195.6,145.2 L195.8,145.2 L196.0,145.2 
		L196.2,145.2 L196.4,145.2 L196.7,145.2 L196.9,145.2 L197.1,145.2 L197.3,145.2 L197.6,145.2 L197.8,145.2 
		L198.0,145.2 L198.3,145.2 L198.5,145.2 L198.8,145.2 L199.0,145.2 L199.3,145.3 L199.5,145.3 L199.8,145.3 
		L200.0,145.3 L200.3,145.4 L200.5,145.4 L200.8,145.4 L201.0,145.5 L201.3,145.5 L201.6,145.6 L201.9,145.6 
		L202.1,145.7 L202.4,145.7 L202.7,145.8 L203.0,145.9 L203.2,145.9 L203.5,146.0 L203.8,146.1 L204.1,146.1 
		L204.4,146.2 L204.7,146.3 L205.0,146.4 L205.2,146.4 L205.5,146.5 L205.8,146.6 L206.1,146.7 L206.4,146.8 
		L206.7,146.9 L207.0,147.0 L207.4,147.1 L207.7,147.2 L208.0,147.3 L208.3,147.4 L208.6,147.5 L208.9,147.7 
		L209.2,147.8 L209.5,147.9 L209.9,148.0 L210.2,148.1 L210.5,148.3 L210.8,148.4 L211.1,148.5 L211.5,148.7 
		L211.8,148.8 L212.1,149.0 L212.5,149.1 L212.8,149.2 L213.1,149.4 L213.5,149.5 L213.8,149.7 L214.1,149.9 
		L214.5,150.0 L214.8,150.2 L215.1,150.3 L215.5,150.5 L215.8,150.7 L216.2,150.9 L216.5,151.0 L216.9,151.2 
		L217.2,151.4 L217.5,151.6 L217.9,151.7 L218.2,151.9 L218.6,152.1 L218.9,152.3 L219.3,152.5 L219.6,152.7 
		L220.0,152.9 L220.4,153.1 L220.7,153.3 L221.1,153.5 L221.4,153.7 L221.8,153.9 L222.1,154.1 L222.5,154.3 
		L222.8,154.6 L223.2,154.8 L223.6,155.0 L223.9,155.2 L224.3,155.4 L224.6,155.7 L225.0,155.9 L225.4,156.1 
		L225.7,156.3 L226.1,156.6 L226.4,156.8 L226.8,157.1 L227.2,157.3 L227.5,157.5 L227.9,157.8 L228.2,158.0 
		L228.6,158.3 L229.0,158.5 L229.3,158.8 L229.7,159.0 L230.1,159.3 L230.4,159.5 L230.8,159.8 L231.1,160.0 
		L231.5,160.3 L231.9,160.6 L232.2,160.8 L232.6,161.1 L233.0,161.4 L233.3,161.6 L233.7,161.9 L234.0,162.2 
		L234.4,162.5 L234.8,162.7 L235.1,163.0 L235.5,163.3 L235.8,163.6 L236.2,163.8 L236.5,164.1 L236.9,164.4 
		L237.3,164.7 L237.6,165.0 L238.0,165.3 L238.3,165.6 L238.7,165.9 L239.0,166.1 L239.4,166.4 L239.7,166.7 
		L240.1,167.0 L240.4,167.3 L240.8,167.6 L241.1,167.9 L241.5,168.2 L241.8,168.5 L242.2,168.8 L242.5,169.1 
		L242.9,169.4 L243.2,169.7 L243.5,170.0 L243.9,170.4 L244.2,170.7 L244.6,171.0 L244.9,171.3 L245.2,171.6 
		L245.6,171.9 L245.9,172.2 L246.2,172.5 L246.6,172.8 L246.9,173.2 L247.2,173.5 L247.5,173.8 L247.9,174.1 
		L248.2,174.4 L248.5,174.7 L248.8,175.1 L249.2,175.4 L249.5,175.7 L249.8,176.0 L250.1,176.3 L250.4,176.7 
		L250.7,177.0 L251.0,177.3 L251.4,177.6 L251.7,177.9 L252.0,178.3 L252.3,178.6 L252.6,178.9 L252.9,179.2 
		L253.2,179.6 L253.5,179.9 L253.8,180.2 L254.1,180.5 L254.3,180.9 L254.6,181.2 L254.9,181.5 L255.2,181.8 
		L255.5,182.2 L255.8,182.5 L256.1,182.8 L256.3,183.1 L256.6,183.5 L256.9,183.8 L257.1,184.1 L257.4,184.4 
		L257.7,184.8 L257.9,185.1 L258.2,185.4 L258.5,185.7 L258.7,186.1 L259.0,186.4 L259.2,186.7 L259.5,187.0 
		L259.7,187.4 L260.0,187.7 L260.2,188.0 L260.5,188.3 L260.7,188.6 L260.9,189.0 L261.2,189.3 L261.4,189.6 
		L261.6,189.9 L261.9,190.2 L262.1,190.6 L262.3,190.9 L262.5,191.2 L262.8,191.5 L263.0,191.8 L263.2,192.1 
		L263.4,192.5 L263.6,192.8 L263.8,193.1 L264.0,193.4 L264.2,193.7 L264.4,194.0 L264.6,194.3 L264.8,194.6 
		L265.0,194.9 L265.2,195.2 L265.4,195.5 L265.5,195.8 L265.7,196.2 L265.9,196.5 L266.1,196.8 L266.2,197.1 
		L266.4,197.4 L266.6,197.6 L266.7,197.9 L266.9,198.2 L267.0,198.5 L267.2,198.8 L267.3,199.1 L267.5,199.4 
		L267.6,199.7 L267.8,200.0 L267.9,200.3 L268.0,200.6 L268.2,200.8 L268.3,201.1 L268.4,201.4 L268.6,201.7 
		L268.7,202.0 L268.8,202.2 L268.9,202.5 L269.0,202.8 L269.1,203.1 L269.2,203.3 L269.3,203.6 L269.4,203.9 
		L269.5,204.1 L269.6,204.4 L269.7,204.7 L269.8,204.9 L269.9,205.2 L270.0,205.4 L270.0,205.7 L270.1,205.9 
		L270.2,206.2 L270.3,206.4 L270.3,206.7 L270.4,206.9 L270.4,207.2 L270.5,207.4 L270.6,207.7 L270.6,207.9 
		L270.6,208.1 L270.7,208.4 L270.7,208.6 L270.8,208.8 L270.8,209.1 L270.8,209.3 L270.9,209.5 L270.9,209.7 
		L270.9,210.0 L270.9,210.2 L270.9,210.4 L271.0,210.6 L271.0,210.8 L271.0,211.0 L271.0,211.2 L271.0,211.4 
		L271.0,211.6 L271.0,211.8 L270.9,212.0 L270.9,212.2 L270.9,212.4 L270.9,212.6 L270.9,212.8 L270.9,213.0 
		L270.8,213.2  h0.01'/></g>
	</g>
	<g id="gnuplot_plot_2" ><title>gnuplot_plot_2</title>
<g style="fill:none; color:red; stroke:currentColor; stroke-width:1.00; stroke-linecap:butt; stroke-linejoin:miter">
	<path stroke='red'  d='M485.3,412.2 L485.3,412.3 L485.2,412.3 L485.1,412.3 L485.0,412.3 L485.0,412.4 L484.9,412.4 L484.8,412.4 
		L484.7,412.4 L484.6,412.4 L484.5,412.4 L484.4,412.4 L484.4,412.5 L484.3,412.5 L484.2,412.5 L484.1,412.5 
		L483.9,412.5 L483.8,412.5 L483.7,412.5 L483.6,412.5 L483.5,412.6 L483.3,412.6 L483.2,412.6 L483.1,412.6 
		L482.9,412.6 L482.8,412.6 L482.6,412.6 L482.5,412.6 L482.3,412.6 L482.1,412.7 L482.0,412.7 L481.8,412.7 
		L481.6,412.7 L481.4,412.7 L481.2,412.7 L481.0,412.7 L480.8,412.7 L480.6,412.7 L480.4,412.7 L480.2,412.7 
		L480.0,412.8 L479.8,412.8 L479.5,412.8 L479.3,412.8 L479.1,412.8 L478.9,412.8 L478.8,412.8 M431.0,412.8 
		L430.4,412.8 L429.9,412.8 L429.4,412.8 L428.8,412.8 L428.3,412.8 L427.8,412.7 L427.2,412.7 L426.7,412.7 
		L426.2,412.7 L425.6,412.7 L425.1,412.7 L424.6,412.7 L424.0,412.7 L423.5,412.7 L423.0,412.7 L422.4,412.7 
		L421.9,412.6 L421.4,412.6 L420.8,412.6 L420.3,412.6 L419.8,412.6 L419.2,412.6 L418.7,412.6 L418.2,412.6 
		L417.6,412.6 L417.1,412.5 L416.6,412.5 L416.0,412.5 L415.5,412.5 L415.0,412.5 L414.5,412.5 L413.9,412.5 
		L413.4,412.5 L412.9,412.5 L412.3,412.4 L411.8,412.4 L411.3,412.4 L410.8,412.4 L410.3,412.4 L409.7,412.4 
		L409.2,412.4 L408.7,412.3 L408.2,412.3 L407.7,412.3 L407.1,412.3 L406.6,412.3 L406.1,412.3 L405.6,412.3 
		L405.1,412.3 L404.6,412.2 L404.1,412.2 L403.6,412.2 L403.1,412.2 L402.6,412.2 L402.1,412.2 L401.6,412.2 
		L401.1,412.1 L400.6,412.1 L400.1,412.1 L399.6,412.1 L399.1,412.1 L398.6,412.1 L398.1,412.1 L397.7,412.0 
		L397.2,412.0 L396.7,412.0 L396.2,412.0 L395.8,412.0 L395.3,412.0 L394.8,412.0 L394.3,411.9 L393.9,411.9 
		L393.4,411.9 L392.9,411.9 L392.5,411.9 L392.0,411.9 L391.6,411.8 L391.1,411.8 L390.7,411.8 L390.2,411.8 
		L389.8,411.8 L389.3,411.8 L388.9,411.7 L388.5,411.7 L388.0,411.7 L387.6,411.7 L387.2,411.7 L386.7,411.7 
		L386.3,411.7 L385.9,411.6 L385.5,411.6 L385.1,411.6 L384.7,411.6 L384.3,411.6 L383.8,411.6 L383.4,411.5 
		L383.0,411.5 L382.7,411.5 L382.3,411.5 L381.9,411.5 L381.5,411.5 L381.1,411.4 L380.7,411.4 L380.3,411.4 
		L380.0,411.4 L379.6,411.4 L379.2,411.4 L378.9,411.3 L378.5,411.3 L378.2,411.3 L377.8,411.3 L377.5,411.3 
		L377.1,411.2 L376.8,411.2 L376.4,411.2 L376.1,411.2 L375.8,411.2 L375.4,411.2 L375.1,411.1 L374.8,411.1 
		L374.5,411.1 L374.2,411.1 L373.9,411.1 L373.6,411.1 L373.3,411.0 L373.0,411.0 L372.7,411.0 L372.4,411.0 
		L372.1,411.0 L371.8,411.0 L371.5,410.9 L371.3,410.9 L371.0,410.9 L370.7,410.9 L370.5,410.9 L370.2,410.9 
		L370.0,410.8 L369.7,410.8 L369.5,410.8 L369.2,410.8 L369.0,410.8 L368.8,410.8 L368.5,410.7 L368.3,410.7 
		L368.1,410.7 L367.9,410.7 L367.7,410.7 L367.4,410.7 L367.2,410.6 L367.0,410.6 L366.9,410.6 L366.7,410.6 
		L366.5,410.6 L366.3,410.6 L366.1,410.5 L366.0,410.5 L365.8,410.5 L365.6,410.5 L365.5,410.5 L365.3,410.5 
		L365.2,410.4 L365.0,410.4 L364.9,410.4 L364.7,410.4 L364.6,410.4 L364.5,410.4 L364.4,410.3 L364.2,410.3 
		L364.1,410.3 L364.0,410.3 L363.9,410.3 L363.8,410.3 L363.7,410.2 L363.6,410.2 L363.5,410.2 L363.4,410.2 
		L363.3,410.2 L363.2,410.2 L363.2,410.1 L363.1,410.1 L363.0,410.1 L362.9,410.1 L362.9,410.0 L362.8,410.0 
		L362.8,409.9 L362.9,409.9 L362.9,409.8 L363.0,409.8 L363.1,409.8 L363.2,409.8 L363.3,409.8 L363.4,409.7 
		L363.5,409.7 L363.6,409.7 L363.7,409.7 L363.8,409.7 L363.9,409.7 L364.0,409.7 L364.1,409.6 L364.2,409.6 
		L364.4,409.6 L364.5,409.6 L364.6,409.6 L364.7,409.6 L364.9,409.6 L365.0,409.6 L365.2,409.6 L365.3,409.5 
		L365.5,409.5 L365.6,409.5 L365.8,409.5 L366.0,409.5 L366.1,409.5 L366.3,409.5 L366.5,409.5 L366.7,409.5 
		L366.9,409.5 L367.1,409.4 L367.3,409.4 L367.5,409.4 L367.7,409.4 L367.9,409.4 L368.1,409.4 L368.3,409.4 
		L368.5,409.4 L368.8,409.4 L369.0,409.4 L369.2,409.4 L369.5,409.3 L369.7,409.3 L370.0,409.3 L370.2,409.3 
		L370.5,409.3 L370.7,409.3 L371.0,409.3 L371.3,409.3 L371.5,409.3 L371.8,409.3 L372.1,409.3 L372.4,409.3 
		L372.7,409.3 L373.0,409.3 L373.3,409.2 L373.6,409.2 L373.9,409.2 L374.2,409.2 L374.5,409.2 L374.8,409.2 
		L375.1,409.2 L375.4,409.2 L375.8,409.2 L376.1,409.2 L376.4,409.2 L376.8,409.2 L377.1,409.2 L377.5,409.2 
		L377.8,409.2 L378.2,409.2 L378.5,409.2 L378.9,409.2 L379.2,409.2 L379.6,409.2 L380.0,409.2 L380.4,409.2 
		L380.7,409.1 L381.1,409.1 L381.5,409.1 L381.9,409.1 L382.3,409.1 L382.7,409.1 L383.1,409.1 L383.5,409.1 
		L383.9,409.1 L384.3,409.1 L384.7,409.1 L385.1,409.1 L385.5,409.1 L385.9,409.1 L386.3,409.1 L386.8,409.1 
		L387.2,409.1 L387.6,409.1 L388.0,409.1 L388.5,409.1 L388.9,409.1 L389.4,409.1 L389.8,409.1 L390.2,409.1 
		L390.7,409.1 L391.1,409.1 L391.6,409.1 L392.0,409.1 L392.5,409.1 L393.0,409.1 L393.4,409.1 L393.9,409.1 
		L394.3,409.1 L394.8,409.1 L395.3,409.1 L395.8,409.1 L396.2,409.1 L396.7,409.1 L397.2,409.1 L397.7,409.1 
		L398.2,409.1 L398.6,409.2 L399.1,409.2 L399.6,409.2 L400.1,409.2 L400.6,409.2 L401.1,409.2 L401.6,409.2 
		L402.1,409.2 L402.6,409.2 L403.1,409.2 L403.6,409.2 L404.1,409.2 L404.6,409.2 L405.1,409.2 L405.6,409.2 
		L406.1,409.2 L406.6,409.2 L407.2,409.2 L407.7,409.2 L408.2,409.2 L408.7,409.2 L409.2,409.2 L409.7,409.3 
		L410.3,409.3 L410.8,409.3 L411.3,409.3 L411.8,409.3 L412.4,409.3 L412.9,409.3 L413.4,409.3 L413.9,409.3 
		L414.5,409.3 L415.0,409.3 L415.5,409.3 L416.1,409.3 L416.6,409.3 L417.1,409.4 L417.6,409.4 L418.2,409.4 
		L418.7,409.4 L419.2,409.4 L419.8,409.4 L420.3,409.4 L420.8,409.4 L421.4,409.4 L421.9,409.4 L422.4,409.4 
		L423.0,409.5 L423.5,409.5 L424.0,409.5 L424.6,409.5 L425.1,409.5 L425.6,409.5 L426.2,409.5 L426.7,409.5 
		L427.3,409.5 L427.8,409.5 L428.3,409.6 L428.9,409.6 L429.4,409.6 L429.9,409.6 L430.4,409.6 L431.0,409.6 
		L431.5,409.6 L432.0,409.6 L432.6,409.6 L433.1,409.7 L433.6,409.7 L434.2,409.7 L434.7,409.7 L435.2,409.7 
		L435.7,409.7 L436.3,409.7 L436.8,409.7 L437.3,409.8 L437.8,409.8 L438.3,409.8 L438.9,409.8 L439.4,409.8 
		L439.9,409.8 L440.4,409.8 L440.9,409.8 L441.4,409.9 L442.0,409.9 L442.5,409.9 L443.0,409.9 L443.5,409.9 
		L444.0,409.9 L444.5,409.9 L445.0,410.0 L445.5,410.0 L446.0,410.0 L446.5,410.0 L447.0,410.0 L447.5,410.0 
		L448.0,410.0 L448.5,410.1 L449.0,410.1 L449.4,410.1 L449.9,410.1 L450.4,410.1 L450.9,410.1 L451.4,410.1 
		L451.9,410.2 L452.3,410.2 L452.8,410.2 L453.3,410.2 L453.7,410.2 L454.2,410.2 L454.7,410.2 L455.1,410.3 
		L455.6,410.3 L456.0,410.3 L456.5,410.3 L457.0,410.3 L457.4,410.3 L457.9,410.4 L458.3,410.4 L458.7,410.4 
		L459.2,410.4 L459.6,410.4 L460.0,410.4 L460.5,410.5 L460.9,410.5 L461.3,410.5 L461.8,410.5 L462.2,410.5 
		L462.6,410.5 L463.0,410.6 L463.4,410.6 L463.8,410.6 L464.2,410.6 L464.6,410.6 L465.0,410.6 L465.4,410.7 
		L465.8,410.7 L466.2,410.7 L466.6,410.7 L467.0,410.7 L467.4,410.7 L467.7,410.8 L468.1,410.8 L468.5,410.8 
		L468.8,410.8 L469.2,410.8 L469.6,410.8 L469.9,410.9 L470.3,410.9 L470.6,410.9 L471.0,410.9 L471.3,410.9 
		L471.6,410.9 L472.0,411.0 L472.3,411.0 L472.6,411.0 L473.0,411.0 L473.3,411.0 L473.6,411.0 L473.9,411.1 
		L474.2,411.1 L474.5,411.1 L474.8,411.1 L475.1,411.1 L475.4,411.1 L475.7,411.2 L476.0,411.2 L476.3,411.2 
		L476.5,411.2 L476.8,411.2 L477.1,411.2 L477.4,411.3 L477.6,411.3 L477.9,411.3 L478.1,411.3 L478.4,411.3 
		L478.6,411.3 L478.9,411.4 L479.1,411.4 L479.3,411.4 L479.6,411.4 L479.8,411.4 L480.0,411.4 L480.2,411.5 
		L480.4,411.5 L480.6,411.5 L480.8,411.5 L481.0,411.5 L481.2,411.5 L481.4,411.6 L481.6,411.6 L481.8,411.6 
		L482.0,411.6 L482.1,411.6 L482.3,411.6 L482.5,411.7 L482.6,411.7 L482.8,411.7 L482.9,411.7 L483.1,411.7 
		L483.2,411.7 L483.3,411.8 L483.5,411.8 L483.6,411.8 L483.7,411.8 L483.8,411.8 L484.0,411.8 L484.1,411.9 
		L484.2,411.9 L484.3,411.9 L484.4,411.9 L484.5,411.9 L484.6,411.9 L484.7,412.0 L484.8,412.0 L484.9,412.0 
		L485.0,412.0 L485.1,412.1 L485.2,412.1 L485.3,412.1 L485.3,412.2  h0.01'/></g>
	</g>
	<g id="gnuplot_plot_3" ><title>gnuplot_plot_3</title>
<g style="fill:none; color:red; stroke:currentColor; stroke-width:1.00; stroke-linecap:butt; stroke-linejoin:miter">
	<path stroke='red'  d='M158.4,151.9 L158.4,152.1 L158.3,152.3 L158.3,152.5 L158.3,152.7 L158.3,152.9 L158.2,153.0 L158.2,153.2 
		L158.2,153.4 L158.1,153.6 L158.1,153.8 L158.1,154.0 L158.0,154.2 L158.0,154.3 L157.9,154.5 L157.9,154.7 
		L157.8,154.9 L157.8,155.1 L157.7,155.2 L157.6,155.4 L157.6,155.6 L157.5,155.8 L157.4,155.9 L157.3,156.1 
		L157.3,156.3 L157.2,156.5 L157.1,156.6 L157.0,156.8 L156.9,157.0 L156.8,157.1 L156.7,157.3 L156.6,157.5 
		L156.5,157.6 L156.4,157.8 L156.3,157.9 L156.2,158.1 L156.1,158.3 L156.0,158.4 L155.9,158.6 L155.8,158.7 
		L155.7,158.9 L155.5,159.0 L155.4,159.2 L155.3,159.3 L155.1,159.5 L155.0,159.6 L154.9,159.8 L154.7,159.9 
		L154.6,160.0 L154.5,160.2 L154.3,160.3 L154.2,160.5 L154.0,160.6 L153.8,160.7 L153.7,160.9 L153.5,161.0 
		L153.4,161.1 L153.2,161.3 L153.0,161.4 L152.9,161.5 L152.7,161.6 L152.5,161.8 L152.4,161.9 L152.2,162.0 
		L152.0,162.1 L151.8,162.2 L151.6,162.3 L151.4,162.5 L151.2,162.6 L151.1,162.7 L150.9,162.8 L150.7,162.9 
		L150.5,163.0 L150.3,163.1 L150.1,163.2 L149.9,163.3 L149.6,163.4 L149.4,163.5 L149.2,163.6 L149.0,163.7 
		L148.8,163.8 L148.6,163.9 L148.3,164.0 L148.1,164.0 L147.9,164.1 L147.7,164.2 L147.4,164.3 L147.2,164.4 
		L147.0,164.5 L146.7,164.5 L146.5,164.6 L146.3,164.7 L146.0,164.7 L145.8,164.8 L145.5,164.9 L145.3,165.0 
		L145.0,165.0 L144.8,165.1 L144.5,165.1 L144.3,165.2 L144.0,165.3 L143.8,165.3 L143.5,165.4 L143.3,165.4 
		L143.0,165.5 L142.7,165.5 L142.5,165.6 L142.2,165.6 L141.9,165.6 L141.7,165.7 L141.4,165.7 L141.1,165.8 
		L140.8,165.8 L140.6,165.8 L140.3,165.9 L140.0,165.9 L139.7,165.9 L139.4,165.9 L139.2,166.0 L138.9,166.0 
		L138.6,166.0 L138.3,166.0 L138.0,166.0 L137.7,166.1 L137.4,166.1 L137.1,166.1 L136.8,166.1 L136.6,166.1 
		L136.3,166.1 L136.0,166.1 L135.7,166.1 L135.4,166.1 L135.1,166.1 L134.8,166.1 L134.5,166.1 L134.2,166.1 
		L133.8,166.1 L133.5,166.1 L133.2,166.1 L132.9,166.0 L132.6,166.0 L132.3,166.0 L132.0,166.0 L131.7,166.0 
		L131.4,165.9 L131.1,165.9 L130.8,165.9 L130.4,165.9 L130.1,165.8 L129.8,165.8 L129.5,165.8 L129.2,165.7 
		L128.9,165.7 L128.5,165.6 L128.2,165.6 L127.9,165.6 L127.6,165.5 L127.3,165.5 L126.9,165.4 L126.6,165.4 
		L126.3,165.3 L126.0,165.3 L125.7,165.2 L125.3,165.1 L125.0,165.1 L124.7,165.0 L124.4,165.0 L124.0,164.9 
		L123.7,164.8 L123.4,164.7 L123.1,164.7 L122.7,164.6 L122.4,164.5 L122.1,164.5 L121.8,164.4 L121.4,164.3 
		L121.1,164.2 L120.8,164.1 L120.5,164.0 L120.2,164.0 L119.8,163.9 L119.5,163.8 L119.2,163.7 L118.9,163.6 
		L118.5,163.5 L118.2,163.4 L117.9,163.3 L117.6,163.2 L117.2,163.1 L116.9,163.0 L116.6,162.9 L116.3,162.8 
		L115.9,162.7 L115.6,162.6 L115.3,162.5 L115.0,162.3 L114.7,162.2 L114.3,162.1 L114.0,162.0 L113.7,161.9 
		L113.4,161.8 L113.1,161.6 L112.8,161.5 L112.4,161.4 L112.1,161.3 L111.8,161.1 L111.5,161.0 L111.2,160.9 
		L110.9,160.7 L110.6,160.6 L110.3,160.5 L109.9,160.3 L109.6,160.2 L109.3,160.0 L109.0,159.9 L108.7,159.8 
		L108.4,159.6 L108.1,159.5 L107.8,159.3 L107.5,159.2 L107.2,159.0 L106.9,158.9 L106.6,158.7 L106.3,158.6 
		L106.0,158.4 L105.7,158.3 L105.4,158.1 L105.1,157.9 L104.8,157.8 L104.5,157.6 L104.2,157.5 L104.0,157.3 
		L103.7,157.1 L103.4,157.0 L103.1,156.8 L102.8,156.6 L102.5,156.5 L102.3,156.3 L102.0,156.1 L101.7,155.9 
		L101.4,155.8 L101.1,155.6 L100.9,155.4 L100.6,155.2 L100.3,155.1 L100.1,154.9 L99.8,154.7 L99.5,154.5 
		L99.3,154.3 L99.0,154.2 L98.8,154.0 L98.5,153.8 L98.2,153.6 L98.0,153.4 L97.7,153.2 L97.5,153.0 
		L97.2,152.9 L97.0,152.7 L96.7,152.5 L96.5,152.3 L96.3,152.1 L96.0,151.9 L95.8,151.7 L95.5,151.5 
		L95.3,151.3 L95.1,151.1 L94.8,150.9 L94.6,150.7 L94.4,150.5 L94.2,150.3 L93.9,150.1 L93.7,149.9 
		L93.5,149.7 L93.3,149.5 L93.1,149.3 L92.9,149.1 L92.7,148.9 L92.4,148.7 L92.2,148.5 L92.0,148.3 
		L91.8,148.1 L91.6,147.9 L91.4,147.7 L91.3,147.5 L91.1,147.3 L90.9,147.1 L90.7,146.8 L90.5,146.6 
		L90.3,146.4 L90.1,146.2 L90.0,146.0 L89.8,145.8 L89.6,145.6 L89.4,145.4 L89.3,145.2 L89.1,145.0 
		L88.9,144.7 L88.8,144.5 L88.6,144.3 L88.5,144.1 L88.3,143.9 L88.2,143.7 L88.0,143.5 L87.9,143.3 
		L87.7,143.0 L87.6,142.8 L87.5,142.6 L87.3,142.4 L87.2,142.2 L87.1,142.0 L86.9,141.8 L86.8,141.5 
		L86.7,141.3 L86.6,141.1 L86.4,140.9 L86.3,140.7 L86.2,140.5 L86.1,140.3 L86.0,140.1 L85.9,139.8 
		L85.8,139.6 L85.7,139.4 L85.6,139.2 L85.5,139.0 L85.4,138.8 L85.3,138.6 L85.2,138.4 L85.2,138.1 
		L85.1,137.9 L85.0,137.7 L84.9,137.5 L84.9,137.3 L84.8,137.1 L84.7,136.9 L84.7,136.7 L84.6,136.5 
		L84.6,136.3 L84.5,136.0 L84.4,135.8 L84.4,135.6 L84.4,135.4 L84.3,135.2 L84.3,135.0 L84.2,134.8 
		L84.2,134.6 L84.2,134.4 L84.1,134.2 L84.1,134.0 L84.1,133.8 L84.1,133.6 L84.0,133.4 L84.0,133.2 
		L84.0,133.0 L84.0,132.8 L84.0,132.6 L84.0,132.4 L84.0,132.2 L84.0,132.0 L84.0,131.8 L84.0,131.6 
		L84.0,131.4 L84.0,131.2 L84.1,131.0 L84.1,130.8 L84.1,130.6 L84.1,130.5 L84.1,130.3 L84.2,130.1 
		L84.2,129.9 L84.2,129.7 L84.3,129.5 L84.3,129.3 L84.4,129.1 L84.4,129.0 L84.5,128.8 L84.5,128.6 
		L84.6,128.4 L84.6,128.2 L84.7,128.1 L84.8,127.9 L84.8,127.7 L84.9,127.5 L85.0,127.4 L85.0,127.2 
		L85.1,127.0 L85.2,126.8 L85.3,126.7 L85.4,126.5 L85.5,126.3 L85.6,126.2 L85.6,126.0 L85.7,125.8 
		L85.8,125.7 L85.9,125.5 L86.0,125.4 L86.2,125.2 L86.3,125.1 L86.4,124.9 L86.5,124.7 L86.6,124.6 
		L86.7,124.4 L86.9,124.3 L87.0,124.1 L87.1,124.0 L87.2,123.8 L87.4,123.7 L87.5,123.5 L87.7,123.4 
		L87.8,123.3 L87.9,123.1 L88.1,123.0 L88.2,122.8 L88.4,122.7 L88.5,122.6 L88.7,122.4 L88.9,122.3 
		L89.0,122.2 L89.2,122.1 L89.3,121.9 L89.5,121.8 L89.7,121.7 L89.9,121.6 L90.0,121.4 L90.2,121.3 
		L90.4,121.2 L90.6,121.1 L90.8,121.0 L91.0,120.9 L91.1,120.7 L91.3,120.6 L91.5,120.5 L91.7,120.4 
		L91.9,120.3 L92.1,120.2 L92.3,120.1 L92.5,120.0 L92.7,119.9 L93.0,119.8 L93.2,119.7 L93.4,119.6 
		L93.6,119.5 L93.8,119.4 L94.0,119.4 L94.3,119.3 L94.5,119.2 L94.7,119.1 L94.9,119.0 L95.2,118.9 
		L95.4,118.9 L95.6,118.8 L95.9,118.7 L96.1,118.6 L96.4,118.6 L96.6,118.5 L96.8,118.4 L97.1,118.4 
		L97.3,118.3 L97.6,118.2 L97.8,118.2 L98.1,118.1 L98.4,118.1 L98.6,118.0 L98.9,117.9 L99.1,117.9 
		L99.4,117.8 L99.7,117.8 L99.9,117.8 L100.2,117.7 L100.5,117.7 L100.7,117.6 L101.0,117.6 L101.3,117.5 
		L101.5,117.5 L101.8,117.5 L102.1,117.4 L102.4,117.4 L102.7,117.4 L102.9,117.4 L103.2,117.3 L103.5,117.3 
		L103.8,117.3 L104.1,117.3 L104.4,117.3 L104.7,117.2 L105.0,117.2 L105.2,117.2 L105.5,117.2 L105.8,117.2 
		L106.1,117.2 L106.4,117.2 L106.7,117.2 L107.0,117.2 L107.3,117.2 L107.6,117.2 L107.9,117.2 L108.2,117.2 
		L108.5,117.2 L108.8,117.2 L109.2,117.2 L109.5,117.3 L109.8,117.3 L110.1,117.3 L110.4,117.3 L110.7,117.3 
		L111.0,117.4 L111.3,117.4 L111.6,117.4 L112.0,117.4 L112.3,117.5 L112.6,117.5 L112.9,117.5 L113.2,117.6 
		L113.5,117.6 L113.8,117.7 L114.2,117.7 L114.5,117.8 L114.8,117.8 L115.1,117.8 L115.4,117.9 L115.8,117.9 
		L116.1,118.0 L116.4,118.1 L116.7,118.1 L117.1,118.2 L117.4,118.2 L117.7,118.3 L118.0,118.4 L118.3,118.4 
		L118.7,118.5 L119.0,118.6 L119.3,118.6 L119.6,118.7 L120.0,118.8 L120.3,118.9 L120.6,118.9 L120.9,119.0 
		L121.3,119.1 L121.6,119.2 L121.9,119.3 L122.2,119.4 L122.6,119.4 L122.9,119.5 L123.2,119.6 L123.5,119.7 
		L123.9,119.8 L124.2,119.9 L124.5,120.0 L124.8,120.1 L125.2,120.2 L125.5,120.3 L125.8,120.4 L126.1,120.5 
		L126.4,120.6 L126.8,120.7 L127.1,120.9 L127.4,121.0 L127.7,121.1 L128.0,121.2 L128.4,121.3 L128.7,121.4 
		L129.0,121.6 L129.3,121.7 L129.6,121.8 L129.9,121.9 L130.3,122.1 L130.6,122.2 L130.9,122.3 L131.2,122.4 
		L131.5,122.6 L131.8,122.7 L132.1,122.9 L132.4,123.0 L132.8,123.1 L133.1,123.3 L133.4,123.4 L133.7,123.6 
		L134.0,123.7 L134.3,123.8 L134.6,124.0 L134.9,124.1 L135.2,124.3 L135.5,124.4 L135.8,124.6 L136.1,124.7 
		L136.4,124.9 L136.7,125.1 L137.0,125.2 L137.3,125.4 L137.6,125.5 L137.9,125.7 L138.1,125.9 L138.4,126.0 
		L138.7,126.2 L139.0,126.3 L139.3,126.5 L139.6,126.7 L139.9,126.9 L140.1,127.0 L140.4,127.2 L140.7,127.4 
		L141.0,127.5 L141.2,127.7 L141.5,127.9 L141.8,128.1 L142.1,128.2 L142.3,128.4 L142.6,128.6 L142.9,128.8 
		L143.1,129.0 L143.4,129.2 L143.6,129.3 L143.9,129.5 L144.2,129.7 L144.4,129.9 L144.7,130.1 L144.9,130.3 
		L145.2,130.5 L145.4,130.6 L145.7,130.8 L145.9,131.0 L146.1,131.2 L146.4,131.4 L146.6,131.6 L146.9,131.8 
		L147.1,132.0 L147.3,132.2 L147.5,132.4 L147.8,132.6 L148.0,132.8 L148.2,133.0 L148.4,133.2 L148.7,133.4 
		L148.9,133.6 L149.1,133.8 L149.3,134.0 L149.5,134.2 L149.7,134.4 L149.9,134.6 L150.1,134.8 L150.3,135.0 
		L150.5,135.2 L150.7,135.4 L150.9,135.6 L151.1,135.8 L151.3,136.1 L151.5,136.3 L151.7,136.5 L151.9,136.7 
		L152.1,136.9 L152.3,137.1 L152.4,137.3 L152.6,137.5 L152.8,137.7 L152.9,137.9 L153.1,138.1 L153.3,138.4 
		L153.4,138.6 L153.6,138.8 L153.8,139.0 L153.9,139.2 L154.1,139.4 L154.2,139.6 L154.4,139.8 L154.5,140.1 
		L154.7,140.3 L154.8,140.5 L154.9,140.7 L155.1,140.9 L155.2,141.1 L155.3,141.3 L155.5,141.6 L155.6,141.8 
		L155.7,142.0 L155.8,142.2 L155.9,142.4 L156.1,142.6 L156.2,142.8 L156.3,143.0 L156.4,143.3 L156.5,143.5 
		L156.6,143.7 L156.7,143.9 L156.8,144.1 L156.9,144.3 L157.0,144.5 L157.1,144.7 L157.1,145.0 L157.2,145.2 
		L157.3,145.4 L157.4,145.6 L157.5,145.8 L157.5,146.0 L157.6,146.2 L157.7,146.4 L157.7,146.6 L157.8,146.8 
		L157.8,147.1 L157.9,147.3 L157.9,147.5 L158.0,147.7 L158.0,147.9 L158.1,148.1 L158.1,148.3 L158.2,148.5 
		L158.2,148.7 L158.2,148.9 L158.3,149.1 L158.3,149.3 L158.3,149.5 L158.3,149.7 L158.3,149.9 L158.4,150.1 
		L158.4,150.3 L158.4,150.5 L158.4,150.7 L158.4,150.9 L158.4,151.1 L158.4,151.3 L158.4,151.5 L158.4,151.7 
		L158.4,151.9  h0.01'/></g>
	</g>
	<g id="gnuplot_plot_4" ><title>gnuplot_plot_4</title>
<g style="fill:none; color:red; stroke:currentColor; stroke-width:1.00; stroke-linecap:butt; stroke-linejoin:miter">
	<path stroke='red'  d='M531.8,164.8 L531.9,164.9 L532.0,164.9 L532.1,165.0 L532.2,165.0 L532.2,165.1 L532.3,165.1 L532.3,165.2 
		L532.4,165.2 L532.4,165.3 L532.5,165.3 L532.5,165.4 L532.6,165.4 L532.6,165.5 L532.7,165.5 L532.7,165.6 
		L532.8,165.7 L532.8,165.8 L532.9,165.8 L532.9,165.9 L532.9,166.0 L533.0,166.0 L533.0,166.1 L533.0,166.2 
		L533.1,166.2 L533.1,166.3 L533.1,166.4 L533.2,166.4 L533.2,166.5 L533.2,166.6 L533.3,166.7 L533.3,166.8 
		L533.3,166.9 L533.4,166.9 L533.4,167.0 L533.4,167.1 L533.4,167.2 L533.5,167.2 L533.5,167.3 L533.5,167.4 
		L533.5,167.5 L533.6,167.6 L533.6,167.7 L533.6,167.8 L533.6,167.9 L533.7,167.9 L533.7,168.0 L533.7,168.1 
		L533.7,168.2 L533.7,168.3 L533.8,168.4 L533.8,168.5 L533.8,168.6 L533.8,168.7 L533.8,168.8 L533.8,168.9 
		L533.9,169.0 L533.9,169.1 L533.9,169.2 L533.9,169.3 L533.9,169.4 L533.9,169.5 L533.9,169.6 L534.0,169.7 
		L534.0,169.8 L534.0,169.9 L534.0,170.0 L534.0,170.1 L534.0,170.2 L534.0,170.3 L534.0,170.4 L534.0,170.5 
		L534.0,170.6 L534.0,170.7 L534.0,170.8 L534.0,170.9 L534.0,171.0 L534.1,171.1 L534.1,171.2 L534.1,171.3 
		L534.1,171.4 L534.1,171.5 L534.1,171.6 L534.1,171.7 L534.1,171.8 L534.1,171.9 L534.1,172.0 L534.1,172.1 
		L534.1,172.2 L534.1,172.3 L534.1,172.4 L534.0,172.5 L534.0,172.6 L534.0,172.7 L534.0,172.8 L534.0,172.9 
		L534.0,173.0 L534.0,173.1 L534.0,173.2 L534.0,173.3 L534.0,173.4 L534.0,173.5 L534.0,173.6 L534.0,173.7 
		L534.0,173.8 L534.0,173.9 L533.9,173.9 L533.9,174.0 L533.9,174.1 L533.9,174.2 L533.9,174.3 L533.9,174.4 
		L533.9,174.5 L533.9,174.6 L533.8,174.7 L533.8,174.8 L533.8,174.9 L533.8,175.0 L533.8,175.1 L533.8,175.2 
		L533.8,175.3 L533.7,175.3 L533.7,175.4 L533.7,175.5 L533.7,175.6 L533.7,175.7 L533.6,175.8 L533.6,175.9 
		L533.6,176.0 L533.6,176.1 L533.5,176.2 L533.5,176.3 L533.5,176.4 L533.5,176.5 L533.4,176.6 L533.4,176.7 
		L533.4,176.8 L533.4,176.9 L533.3,176.9 L533.3,177.0 L533.3,177.1 L533.3,177.2 L533.2,177.2 L533.2,177.3 
		L533.2,177.4 L533.2,177.5 L533.1,177.5 L533.1,177.6 L533.1,177.7 L533.0,177.8 L533.0,177.9 L532.9,178.0 
		L532.9,178.1 L532.9,178.2 L532.8,178.2 L532.8,178.3 L532.8,178.4 L532.7,178.4 L532.7,178.5 L532.7,178.6 
		L532.6,178.6 L532.6,178.7 L532.5,178.8 L532.5,178.9 L532.4,178.9 L532.4,179.0 L532.3,179.1 L532.3,179.2 
		L532.2,179.2 L532.2,179.3 L532.1,179.3 L532.1,179.4 L532.0,179.4 L532.0,179.5 L531.9,179.5 L531.9,179.6 
		L531.8,179.6 L531.8,179.7 L531.7,179.7 L531.6,179.7 L531.6,179.8 L531.5,179.8 L531.4,179.8 L531.4,179.9 
		L531.3,179.9 L531.2,179.9 L531.1,179.9 L531.0,179.9 L530.9,179.9 L530.8,179.9 L530.7,179.9 L530.6,179.9 
		L530.5,179.9 L530.5,179.8 L530.4,179.8 L530.3,179.8 L530.3,179.7 L530.2,179.7 L530.2,179.6 L530.1,179.6 
		L530.1,179.5 L530.0,179.5 L530.0,179.4 L529.9,179.4 L529.9,179.3 L529.8,179.3 L529.8,179.2 L529.7,179.1 
		L529.7,179.0 L529.6,179.0 L529.6,178.9 L529.5,178.9 L529.5,178.8 L529.5,178.7 L529.4,178.7 L529.4,178.6 
		L529.4,178.5 L529.3,178.5 L529.3,178.4 L529.3,178.3 L529.2,178.3 L529.2,178.2 L529.2,178.1 L529.2,178.0 
		L529.1,178.0 L529.1,177.9 L529.1,177.8 L529.0,177.7 L529.0,177.6 L529.0,177.5 L528.9,177.4 L528.9,177.3 
		L528.9,177.2 L528.9,177.1 L528.8,177.1 L528.8,177.0 L528.8,176.9 L528.8,176.8 L528.7,176.7 L528.7,176.6 
		L528.7,176.5 L528.7,176.4 L528.7,176.3 L528.6,176.3 L528.6,176.2 L528.6,176.1 L528.6,176.0 L528.6,175.9 
		L528.6,175.8 L528.6,175.7 L528.5,175.7 L528.5,175.6 L528.5,175.5 L528.5,175.4 L528.5,175.3 L528.5,175.2 
		L528.5,175.1 L528.5,175.0 L528.4,174.9 L528.4,174.8 L528.4,174.7 L528.4,174.6 L528.4,174.5 L528.4,174.4 
		L528.4,174.3 L528.4,174.2 L528.4,174.1 L528.4,174.0 L528.4,173.9 L528.4,173.8 L528.4,173.7 L528.4,173.6 
		L528.4,173.5 L528.4,173.4 L528.4,173.3 L528.4,173.2 L528.4,173.1 L528.3,173.0 L528.3,172.9 L528.4,172.8 
		L528.4,172.7 L528.4,172.6 L528.4,172.5 L528.4,172.4 L528.4,172.3 L528.4,172.2 L528.4,172.1 L528.4,172.0 
		L528.4,171.9 L528.4,171.8 L528.4,171.7 L528.4,171.6 L528.4,171.5 L528.4,171.4 L528.4,171.3 L528.4,171.2 
		L528.4,171.1 L528.4,171.0 L528.5,170.9 L528.5,170.8 L528.5,170.7 L528.5,170.6 L528.5,170.5 L528.5,170.4 
		L528.5,170.3 L528.5,170.2 L528.5,170.1 L528.6,170.1 L528.6,170.0 L528.6,169.9 L528.6,169.8 L528.6,169.7 
		L528.6,169.6 L528.6,169.5 L528.7,169.5 L528.7,169.4 L528.7,169.3 L528.7,169.2 L528.7,169.1 L528.7,169.0 
		L528.8,169.0 L528.8,168.9 L528.8,168.8 L528.8,168.7 L528.8,168.6 L528.9,168.6 L528.9,168.5 L528.9,168.4 
		L528.9,168.3 L528.9,168.2 L529.0,168.2 L529.0,168.1 L529.0,168.0 L529.0,167.9 L529.1,167.8 L529.1,167.7 
		L529.1,167.6 L529.2,167.5 L529.2,167.4 L529.2,167.3 L529.3,167.2 L529.3,167.1 L529.3,167.0 L529.4,167.0 
		L529.4,166.9 L529.4,166.8 L529.5,166.7 L529.5,166.6 L529.5,166.5 L529.6,166.5 L529.6,166.4 L529.7,166.3 
		L529.7,166.2 L529.8,166.1 L529.8,166.0 L529.9,166.0 L529.9,165.9 L529.9,165.8 L530.0,165.8 L530.0,165.7 
		L530.1,165.6 L530.2,165.5 L530.2,165.4 L530.3,165.4 L530.3,165.3 L530.4,165.3 L530.4,165.2 L530.5,165.2 
		L530.5,165.1 L530.6,165.1 L530.7,165.0 L530.8,165.0 L530.8,164.9 L530.9,164.9 L531.0,164.9 L531.0,164.8 
		L531.1,164.8 L531.2,164.8 L531.3,164.8 L531.4,164.8 L531.5,164.8 L531.6,164.8 L531.7,164.8 L531.8,164.8 
		 h0.01'/></g>
	</g>
	<g id="gnuplot_plot_5" ><title>gnuplot_plot_5</title>
<g style="fill:none; color:red; stroke:currentColor; stroke-width:1.00; stroke-linecap:butt; stroke-linejoin:miter">
	<path stroke='red'  d='M502.8,96.3 L502.8,96.4 L502.8,96.5 L502.8,96.6 L502.8,96.8 L502.8,96.9 L502.8,97.0 L502.8,97.1 
		L502.8,97.3 L502.8,97.4 L502.8,97.5 L502.8,97.6 L502.8,97.8 L502.8,97.9 L502.9,98.0 L502.9,98.1 
		L502.9,98.3 L502.9,98.4 L502.8,98.5 L502.8,98.6 L502.8,98.8 L502.8,98.9 L502.8,99.0 L502.8,99.1 
		L502.8,99.3 L502.8,99.4 L502.8,99.5 L502.8,99.6 L502.8,99.8 L502.8,99.9 L502.8,100.0 L502.8,100.1 
		L502.8,100.3 L502.8,100.4 L502.7,100.5 L502.7,100.6 L502.7,100.8 L502.7,100.9 L502.7,101.0 L502.7,101.1 
		L502.7,101.3 L502.7,101.4 L502.6,101.5 L502.6,101.6 L502.6,101.8 L502.6,101.9 L502.6,102.0 L502.5,102.1 
		L502.5,102.3 L502.5,102.4 L502.5,102.5 L502.5,102.6 L502.4,102.7 L502.4,102.9 L502.4,103.0 L502.4,103.1 
		L502.4,103.2 L502.3,103.3 L502.3,103.5 L502.3,103.6 L502.3,103.7 L502.2,103.8 L502.2,103.9 L502.2,104.0 
		L502.1,104.2 L502.1,104.3 L502.1,104.4 L502.1,104.5 L502.0,104.6 L502.0,104.7 L502.0,104.9 L501.9,105.0 
		L501.9,105.1 L501.9,105.2 L501.8,105.3 L501.8,105.4 L501.8,105.5 L501.7,105.6 L501.7,105.8 L501.7,105.9 
		L501.6,106.0 L501.6,106.1 L501.5,106.2 L501.5,106.3 L501.5,106.4 L501.4,106.5 L501.4,106.6 L501.4,106.7 
		L501.3,106.8 L501.3,106.9 L501.2,107.0 L501.2,107.1 L501.1,107.2 L501.1,107.3 L501.1,107.4 L501.0,107.5 
		L501.0,107.6 L500.9,107.7 L500.9,107.8 L500.8,107.9 L500.8,108.0 L500.7,108.1 L500.7,108.2 L500.6,108.3 
		L500.6,108.4 L500.5,108.5 L500.5,108.6 L500.5,108.7 L500.4,108.8 L500.4,108.9 L500.3,109.0 L500.2,109.1 
		L500.1,109.2 L500.1,109.3 L500.0,109.4 L500.0,109.5 L499.9,109.6 L499.9,109.7 L499.8,109.7 L499.8,109.8 
		L499.7,109.9 L499.7,110.0 L499.6,110.1 L499.5,110.2 L499.4,110.3 L499.4,110.4 L499.3,110.4 L499.3,110.5 
		L499.2,110.6 L499.2,110.7 L499.1,110.7 L499.0,110.8 L499.0,110.9 L498.9,110.9 L498.9,111.0 L498.8,111.1 
		L498.7,111.1 L498.7,111.2 L498.6,111.3 L498.5,111.4 L498.4,111.5 L498.3,111.6 L498.2,111.6 L498.2,111.7 
		L498.1,111.8 L498.0,111.9 L497.9,111.9 L497.9,112.0 L497.8,112.0 L497.7,112.1 L497.6,112.2 L497.5,112.2 
		L497.5,112.3 L497.4,112.3 L497.3,112.3 L497.3,112.4 L497.2,112.4 L497.1,112.5 L497.0,112.6 L496.9,112.6 
		L496.8,112.7 L496.7,112.7 L496.6,112.8 L496.5,112.8 L496.4,112.9 L496.3,112.9 L496.2,112.9 L496.1,113.0 
		L496.0,113.0 L495.9,113.0 L495.9,113.1 L495.8,113.1 L495.7,113.1 L495.6,113.1 L495.5,113.1 L495.4,113.2 
		L495.3,113.2 L495.2,113.2 L495.1,113.2 L495.0,113.2 L494.9,113.2 L494.8,113.2 L494.7,113.3 L494.6,113.3 
		L494.5,113.3 L494.4,113.2 L494.3,113.2 L494.2,113.2 L494.1,113.2 L494.0,113.2 L493.9,113.2 L493.8,113.2 
		L493.7,113.2 L493.6,113.1 L493.5,113.1 L493.4,113.1 L493.3,113.1 L493.2,113.0 L493.1,113.0 L493.0,113.0 
		L492.9,112.9 L492.8,112.9 L492.7,112.9 L492.7,112.8 L492.6,112.8 L492.5,112.8 L492.5,112.7 L492.4,112.7 
		L492.3,112.7 L492.3,112.6 L492.2,112.6 L492.1,112.5 L492.0,112.5 L491.9,112.4 L491.8,112.3 L491.7,112.3 
		L491.7,112.2 L491.6,112.2 L491.5,112.1 L491.4,112.1 L491.4,112.0 L491.3,112.0 L491.3,111.9 L491.2,111.8 
		L491.1,111.8 L491.1,111.7 L491.0,111.7 L490.9,111.6 L490.8,111.5 L490.8,111.4 L490.7,111.4 L490.7,111.3 
		L490.6,111.3 L490.5,111.2 L490.5,111.1 L490.4,111.1 L490.4,111.0 L490.3,110.9 L490.2,110.8 L490.1,110.7 
		L490.1,110.6 L490.0,110.6 L490.0,110.5 L489.9,110.4 L489.9,110.3 L489.8,110.3 L489.8,110.2 L489.7,110.1 
		L489.7,110.0 L489.6,110.0 L489.6,109.9 L489.5,109.8 L489.5,109.7 L489.4,109.6 L489.4,109.5 L489.3,109.5 
		L489.3,109.4 L489.2,109.3 L489.2,109.2 L489.1,109.1 L489.1,109.0 L489.0,108.9 L488.9,108.8 L488.9,108.7 
		L488.9,108.6 L488.8,108.5 L488.8,108.4 L488.7,108.3 L488.7,108.2 L488.6,108.1 L488.6,108.0 L488.6,107.9 
		L488.5,107.8 L488.5,107.7 L488.4,107.6 L488.4,107.5 L488.4,107.4 L488.3,107.3 L488.3,107.2 L488.3,107.1 
		L488.2,107.0 L488.2,106.9 L488.1,106.8 L488.1,106.7 L488.1,106.6 L488.0,106.5 L488.0,106.4 L488.0,106.3 
		L487.9,106.2 L487.9,106.1 L487.9,105.9 L487.8,105.8 L487.8,105.7 L487.8,105.6 L487.8,105.5 L487.7,105.4 
		L487.7,105.3 L487.7,105.2 L487.6,105.1 L487.6,104.9 L487.6,104.8 L487.6,104.7 L487.5,104.6 L487.5,104.5 
		L487.5,104.4 L487.5,104.2 L487.5,104.1 L487.4,104.0 L487.4,103.9 L487.4,103.8 L487.4,103.7 L487.4,103.5 
		L487.3,103.4 L487.3,103.3 L487.3,103.2 L487.3,103.1 L487.3,102.9 L487.2,102.8 L487.2,102.7 L487.2,102.6 
		L487.2,102.5 L487.2,102.3 L487.2,102.2 L487.2,102.1 L487.2,102.0 L487.1,101.9 L487.1,101.7 L487.1,101.6 
		L487.1,101.5 L487.1,101.4 L487.1,101.2 L487.1,101.1 L487.1,101.0 L487.1,100.9 L487.1,100.7 L487.1,100.6 
		L487.1,100.5 L487.1,100.4 L487.0,100.2 L487.0,100.1 L487.0,100.0 L487.0,99.9 L487.0,99.7 L487.0,99.6 
		L487.0,99.5 L487.0,99.4 L487.0,99.2 L487.0,99.1 L487.0,99.0 L487.1,98.9 L487.1,98.7 L487.1,98.6 
		L487.1,98.5 L487.1,98.4 L487.1,98.2 L487.1,98.1 L487.1,98.0 L487.1,97.9 L487.1,97.7 L487.1,97.6 
		L487.1,97.5 L487.1,97.4 L487.1,97.2 L487.2,97.1 L487.2,97.0 L487.2,96.9 L487.2,96.7 L487.2,96.6 
		L487.2,96.5 L487.2,96.4 L487.3,96.2 L487.3,96.1 L487.3,96.0 L487.3,95.9 L487.3,95.8 L487.3,95.6 
		L487.4,95.5 L487.4,95.4 L487.4,95.3 L487.4,95.1 L487.4,95.0 L487.5,94.9 L487.5,94.8 L487.5,94.7 
		L487.5,94.5 L487.6,94.4 L487.6,94.3 L487.6,94.2 L487.6,94.1 L487.7,93.9 L487.7,93.8 L487.7,93.7 
		L487.7,93.6 L487.8,93.5 L487.8,93.4 L487.8,93.2 L487.9,93.1 L487.9,93.0 L487.9,92.9 L488.0,92.8 
		L488.0,92.7 L488.0,92.6 L488.1,92.5 L488.1,92.3 L488.1,92.2 L488.2,92.1 L488.2,92.0 L488.2,91.9 
		L488.3,91.8 L488.3,91.7 L488.3,91.6 L488.4,91.5 L488.4,91.4 L488.5,91.2 L488.5,91.1 L488.5,91.0 
		L488.6,90.9 L488.6,90.8 L488.7,90.7 L488.7,90.6 L488.7,90.5 L488.8,90.4 L488.8,90.3 L488.9,90.2 
		L488.9,90.1 L489.0,90.0 L489.0,89.9 L489.1,89.8 L489.1,89.7 L489.2,89.6 L489.2,89.5 L489.2,89.4 
		L489.3,89.3 L489.3,89.2 L489.4,89.2 L489.4,89.1 L489.5,89.0 L489.5,88.9 L489.6,88.8 L489.6,88.7 
		L489.7,88.6 L489.7,88.5 L489.8,88.4 L489.9,88.4 L489.9,88.3 L490.0,88.2 L490.0,88.1 L490.1,88.0 
		L490.1,87.9 L490.2,87.9 L490.2,87.8 L490.3,87.7 L490.3,87.6 L490.4,87.5 L490.5,87.5 L490.5,87.4 
		L490.6,87.3 L490.6,87.2 L490.7,87.2 L490.7,87.1 L490.8,87.0 L490.9,87.0 L490.9,86.9 L491.0,86.8 
		L491.0,86.7 L491.1,86.7 L491.2,86.6 L491.3,86.5 L491.3,86.4 L491.4,86.4 L491.5,86.3 L491.5,86.2 
		L491.6,86.2 L491.7,86.1 L491.8,86.0 L491.9,85.9 L492.0,85.8 L492.1,85.7 L492.2,85.7 L492.2,85.6 
		L492.3,85.6 L492.4,85.5 L492.5,85.5 L492.6,85.4 L492.7,85.3 L492.8,85.2 L492.9,85.2 L493.0,85.1 
		L493.1,85.1 L493.2,85.0 L493.3,85.0 L493.4,85.0 L493.4,84.9 L493.5,84.9 L493.6,84.9 L493.6,84.8 
		L493.7,84.8 L493.8,84.8 L493.9,84.7 L494.0,84.7 L494.1,84.7 L494.2,84.7 L494.2,84.6 L494.3,84.6 
		L494.4,84.6 L494.5,84.6 L494.6,84.6 L494.7,84.6 L494.8,84.5 L494.9,84.5 L495.0,84.5 L495.1,84.5 
		L495.2,84.5 L495.3,84.5 L495.4,84.5 L495.5,84.5 L495.6,84.5 L495.7,84.5 L495.8,84.5 L495.9,84.5 
		L496.0,84.6 L496.1,84.6 L496.2,84.6 L496.3,84.6 L496.4,84.6 L496.5,84.7 L496.6,84.7 L496.7,84.7 
		L496.8,84.8 L496.9,84.8 L497.0,84.8 L497.0,84.9 L497.1,84.9 L497.2,84.9 L497.3,85.0 L497.4,85.0 
		L497.5,85.1 L497.6,85.1 L497.7,85.2 L497.8,85.2 L497.8,85.3 L497.9,85.3 L498.0,85.3 L498.0,85.4 
		L498.1,85.4 L498.1,85.5 L498.2,85.5 L498.3,85.6 L498.4,85.7 L498.5,85.7 L498.5,85.8 L498.6,85.8 
		L498.6,85.9 L498.7,85.9 L498.8,86.0 L498.9,86.1 L499.0,86.2 L499.1,86.3 L499.2,86.4 L499.3,86.5 
		L499.4,86.6 L499.5,86.7 L499.5,86.8 L499.6,86.8 L499.6,86.9 L499.7,87.0 L499.8,87.1 L499.9,87.2 
		L499.9,87.3 L500.0,87.3 L500.0,87.4 L500.1,87.5 L500.1,87.6 L500.2,87.6 L500.2,87.7 L500.3,87.8 
		L500.3,87.9 L500.4,88.0 L500.5,88.1 L500.5,88.2 L500.6,88.3 L500.6,88.4 L500.7,88.5 L500.7,88.6 
		L500.8,88.6 L500.8,88.7 L500.9,88.8 L500.9,88.9 L500.9,89.0 L501.0,89.1 L501.0,89.2 L501.1,89.3 
		L501.1,89.4 L501.2,89.5 L501.2,89.6 L501.2,89.7 L501.3,89.8 L501.4,89.9 L501.4,90.0 L501.5,90.1 
		L501.5,90.2 L501.5,90.3 L501.6,90.4 L501.6,90.5 L501.6,90.7 L501.7,90.8 L501.7,90.9 L501.7,91.0 
		L501.8,91.1 L501.8,91.2 L501.9,91.3 L501.9,91.4 L501.9,91.5 L501.9,91.6 L502.0,91.7 L502.0,91.8 
		L502.0,91.9 L502.1,92.0 L502.1,92.1 L502.1,92.3 L502.2,92.4 L502.2,92.5 L502.2,92.6 L502.2,92.7 
		L502.3,92.8 L502.3,92.9 L502.3,93.1 L502.3,93.2 L502.4,93.3 L502.4,93.4 L502.4,93.5 L502.4,93.6 
		L502.5,93.7 L502.5,93.9 L502.5,94.0 L502.5,94.1 L502.5,94.2 L502.6,94.3 L502.6,94.5 L502.6,94.6 
		L502.6,94.7 L502.6,94.8 L502.6,94.9 L502.7,95.1 L502.7,95.2 L502.7,95.3 L502.7,95.4 L502.7,95.5 
		L502.7,95.7 L502.7,95.8 L502.8,95.9 L502.8,96.0 L502.8,96.2 L502.8,96.3  h0.01'/></g>
	</g>
	<g id="gnuplot_plot_6" ><title>gnuplot_plot_6</title>
<g style="fill:none; color:red; stroke:currentColor; stroke-width:1.00; stroke-linecap:butt; stroke-linejoin:miter">
	<path stroke='red'  d='M420.7,40.3 L420.7,40.5 L420.6,40.7 L420.6,40.8 L420.6,41.0 L420.6,41.2 L420.6,41.3 L420.6,41.5 
		L420.6,41.7 L420.6,41.8 L420.5,42.0 L420.5,42.2 L420.5,42.3 L420.5,42.5 L420.4,42.6 L420.4,42.8 
		L420.4,43.0 L420.4,43.1 L420.3,43.3 L420.3,43.5 L420.3,43.6 L420.2,43.8 L420.2,43.9 L420.1,44.1 
		L420.1,44.3 L420.0,44.4 L420.0,44.6 L419.9,44.7 L419.9,44.9 L419.8,45.1 L419.8,45.2 L419.7,45.4 
		L419.7,45.5 L419.6,45.7 L419.6,45.8 L419.5,46.0 L419.4,46.2 L419.4,46.3 L419.3,46.5 L419.2,46.6 
		L419.2,46.8 L419.1,46.9 L419.0,47.1 L418.9,47.2 L418.9,47.4 L418.8,47.5 L418.7,47.7 L418.6,47.8 
		L418.5,48.0 L418.5,48.1 L418.4,48.3 L418.3,48.4 L418.2,48.5 L418.1,48.7 L418.0,48.8 L417.9,49.0 
		L417.8,49.1 L417.7,49.3 L417.6,49.4 L417.5,49.5 L417.4,49.7 L417.3,49.8 L417.2,49.9 L417.1,50.1 
		L417.0,50.2 L416.9,50.3 L416.8,50.5 L416.7,50.6 L416.5,50.7 L416.4,50.9 L416.3,51.0 L416.2,51.1 
		L416.1,51.3 L416.0,51.4 L415.8,51.5 L415.7,51.6 L415.6,51.8 L415.5,51.9 L415.3,52.0 L415.2,52.1 
		L415.1,52.2 L414.9,52.4 L414.8,52.5 L414.7,52.6 L414.5,52.7 L414.4,52.8 L414.3,52.9 L414.1,53.0 
		L414.0,53.1 L413.8,53.3 L413.7,53.4 L413.5,53.5 L413.4,53.6 L413.2,53.7 L413.1,53.8 L412.9,53.9 
		L412.8,54.0 L412.6,54.1 L412.5,54.2 L412.3,54.3 L412.2,54.4 L412.0,54.5 L411.9,54.6 L411.7,54.7 
		L411.6,54.8 L411.4,54.9 L411.2,54.9 L411.1,55.0 L410.9,55.1 L410.7,55.2 L410.6,55.3 L410.4,55.4 
		L410.2,55.5 L410.1,55.5 L409.9,55.6 L409.7,55.7 L409.6,55.8 L409.4,55.8 L409.2,55.9 L409.0,56.0 
		L408.9,56.1 L408.7,56.1 L408.5,56.2 L408.3,56.3 L408.2,56.3 L408.0,56.4 L407.8,56.5 L407.6,56.5 
		L407.4,56.6 L407.2,56.7 L407.1,56.7 L406.9,56.8 L406.7,56.8 L406.5,56.9 L406.3,56.9 L406.1,57.0 
		L406.0,57.0 L405.8,57.1 L405.6,57.1 L405.4,57.2 L405.2,57.2 L405.0,57.3 L404.8,57.3 L404.6,57.3 
		L404.4,57.4 L404.2,57.4 L404.0,57.5 L403.9,57.5 L403.7,57.5 L403.5,57.6 L403.3,57.6 L403.1,57.6 
		L402.9,57.6 L402.7,57.7 L402.5,57.7 L402.3,57.7 L402.1,57.7 L401.9,57.8 L401.7,57.8 L401.5,57.8 
		L401.3,57.8 L401.1,57.8 L400.9,57.8 L400.7,57.8 L400.5,57.9 L400.3,57.9 L400.1,57.9 L399.9,57.9 
		L399.7,57.9 L399.5,57.9 L399.3,57.9 L399.1,57.9 L398.9,57.9 L398.7,57.9 L398.5,57.9 L398.3,57.9 
		L398.1,57.9 L397.9,57.8 L397.7,57.8 L397.5,57.8 L397.3,57.8 L397.1,57.8 L396.9,57.8 L396.7,57.8 
		L396.5,57.7 L396.3,57.7 L396.1,57.7 L395.9,57.7 L395.7,57.7 L395.5,57.6 L395.3,57.6 L395.1,57.6 
		L394.9,57.5 L394.7,57.5 L394.5,57.5 L394.3,57.4 L394.1,57.4 L393.9,57.4 L393.7,57.3 L393.5,57.3 
		L393.3,57.2 L393.1,57.2 L392.9,57.1 L392.7,57.1 L392.5,57.1 L392.3,57.0 L392.1,57.0 L391.9,56.9 
		L391.7,56.8 L391.5,56.8 L391.3,56.7 L391.1,56.7 L390.9,56.6 L390.8,56.6 L390.6,56.5 L390.4,56.4 
		L390.2,56.4 L390.0,56.3 L389.8,56.2 L389.6,56.2 L389.4,56.1 L389.2,56.0 L389.0,56.0 L388.9,55.9 
		L388.7,55.8 L388.5,55.7 L388.3,55.7 L388.1,55.6 L387.9,55.5 L387.8,55.4 L387.6,55.3 L387.4,55.2 
		L387.2,55.2 L387.0,55.1 L386.9,55.0 L386.7,54.9 L386.5,54.8 L386.3,54.7 L386.1,54.6 L386.0,54.5 
		L385.8,54.4 L385.6,54.3 L385.5,54.2 L385.3,54.1 L385.1,54.0 L384.9,53.9 L384.8,53.8 L384.6,53.7 
		L384.4,53.6 L384.3,53.5 L384.1,53.4 L384.0,53.3 L383.8,53.2 L383.6,53.1 L383.5,53.0 L383.3,52.9 
		L383.2,52.8 L383.0,52.6 L382.8,52.5 L382.7,52.4 L382.5,52.3 L382.4,52.2 L382.2,52.0 L382.1,51.9 
		L381.9,51.8 L381.8,51.7 L381.6,51.6 L381.5,51.4 L381.4,51.3 L381.2,51.2 L381.1,51.1 L380.9,50.9 
		L380.8,50.8 L380.7,50.7 L380.5,50.5 L380.4,50.4 L380.2,50.3 L380.1,50.1 L380.0,50.0 L379.9,49.9 
		L379.7,49.7 L379.6,49.6 L379.5,49.5 L379.4,49.3 L379.2,49.2 L379.1,49.0 L379.0,48.9 L378.9,48.8 
		L378.8,48.6 L378.6,48.5 L378.5,48.3 L378.4,48.2 L378.3,48.0 L378.2,47.9 L378.1,47.7 L378.0,47.6 
		L377.9,47.4 L377.8,47.3 L377.7,47.1 L377.6,47.0 L377.5,46.8 L377.4,46.7 L377.3,46.5 L377.2,46.4 
		L377.1,46.2 L377.0,46.1 L376.9,45.9 L376.8,45.8 L376.7,45.6 L376.6,45.4 L376.6,45.3 L376.5,45.1 
		L376.4,45.0 L376.3,44.8 L376.2,44.7 L376.2,44.5 L376.1,44.3 L376.0,44.2 L376.0,44.0 L375.9,43.9 
		L375.8,43.7 L375.7,43.5 L375.7,43.4 L375.6,43.2 L375.6,43.0 L375.5,42.9 L375.4,42.7 L375.4,42.6 
		L375.3,42.4 L375.3,42.2 L375.2,42.1 L375.2,41.9 L375.1,41.7 L375.1,41.6 L375.1,41.4 L375.0,41.2 
		L375.0,41.1 L374.9,40.9 L374.9,40.7 L374.9,40.6 L374.8,40.4 L374.8,40.2 L374.8,40.1 L374.7,39.9 
		L374.7,39.7 L374.7,39.6 L374.7,39.4 L374.6,39.2 L374.6,39.1 L374.6,38.9 L374.6,38.7 L374.6,38.6 
		L374.6,38.4 L374.6,38.2 L374.5,38.1 L374.5,37.9 L374.5,37.7 L374.5,37.6 L374.5,37.4 L374.5,37.2 
		L374.5,37.1 L374.5,36.9 L374.5,36.7 L374.5,36.6 L374.6,36.4 L374.6,36.2 L374.6,36.1 L374.6,35.9 
		L374.6,35.7 L374.6,35.6 L374.6,35.4 L374.7,35.2 L374.7,35.1 L374.7,34.9 L374.7,34.7 L374.8,34.6 
		L374.8,34.4 L374.8,34.2 L374.9,34.1 L374.9,33.9 L374.9,33.8 L375.0,33.6 L375.0,33.4 L375.1,33.3 
		L375.1,33.1 L375.1,33.0 L375.2,32.8 L375.2,32.6 L375.3,32.5 L375.3,32.3 L375.4,32.2 L375.4,32.0 
		L375.5,31.8 L375.6,31.7 L375.6,31.5 L375.7,31.4 L375.8,31.2 L375.8,31.1 L375.9,30.9 L376.0,30.8 
		L376.0,30.6 L376.1,30.5 L376.2,30.3 L376.2,30.2 L376.3,30.0 L376.4,29.9 L376.5,29.7 L376.6,29.6 
		L376.6,29.4 L376.7,29.3 L376.8,29.1 L376.9,29.0 L377.0,28.8 L377.1,28.7 L377.2,28.6 L377.3,28.4 
		L377.4,28.3 L377.5,28.1 L377.6,28.0 L377.7,27.9 L377.8,27.7 L377.9,27.6 L378.0,27.4 L378.1,27.3 
		L378.2,27.2 L378.3,27.0 L378.4,26.9 L378.5,26.8 L378.6,26.6 L378.8,26.5 L378.9,26.4 L379.0,26.3 
		L379.1,26.1 L379.2,26.0 L379.4,25.9 L379.5,25.8 L379.6,25.6 L379.7,25.5 L379.9,25.4 L380.0,25.3 
		L380.1,25.1 L380.3,25.0 L380.4,24.9 L380.5,24.8 L380.7,24.7 L380.8,24.6 L380.9,24.5 L381.1,24.3 
		L381.2,24.2 L381.4,24.1 L381.5,24.0 L381.6,23.9 L381.8,23.8 L381.9,23.7 L382.1,23.6 L382.2,23.5 
		L382.4,23.4 L382.5,23.3 L382.7,23.2 L382.8,23.1 L383.0,23.0 L383.2,22.9 L383.3,22.8 L383.5,22.7 
		L383.6,22.6 L383.8,22.5 L384.0,22.4 L384.1,22.3 L384.3,22.3 L384.4,22.2 L384.6,22.1 L384.8,22.0 
		L384.9,21.9 L385.1,21.8 L385.3,21.8 L385.5,21.7 L385.6,21.6 L385.8,21.5 L386.0,21.5 L386.1,21.4 
		L386.3,21.3 L386.5,21.2 L386.7,21.2 L386.9,21.1 L387.0,21.0 L387.2,21.0 L387.4,20.9 L387.6,20.8 
		L387.8,20.8 L387.9,20.7 L388.1,20.7 L388.3,20.6 L388.5,20.6 L388.7,20.5 L388.9,20.5 L389.0,20.4 
		L389.2,20.3 L389.4,20.3 L389.6,20.3 L389.8,20.2 L390.0,20.2 L390.2,20.1 L390.4,20.1 L390.6,20.0 
		L390.8,20.0 L390.9,20.0 L391.1,19.9 L391.3,19.9 L391.5,19.9 L391.7,19.8 L391.9,19.8 L392.1,19.8 
		L392.3,19.7 L392.5,19.7 L392.7,19.7 L392.9,19.7 L393.1,19.6 L393.3,19.6 L393.5,19.6 L393.7,19.6 
		L393.9,19.6 L394.1,19.6 L394.3,19.5 L394.5,19.5 L394.7,19.5 L394.9,19.5 L395.1,19.5 L395.3,19.5 
		L395.5,19.5 L395.7,19.5 L395.9,19.5 L396.1,19.5 L396.3,19.5 L396.5,19.5 L396.7,19.5 L396.9,19.5 
		L397.1,19.5 L397.3,19.5 L397.5,19.5 L397.7,19.6 L397.9,19.6 L398.1,19.6 L398.3,19.6 L398.5,19.6 
		L398.7,19.6 L398.9,19.7 L399.1,19.7 L399.3,19.7 L399.5,19.7 L399.7,19.8 L399.9,19.8 L400.1,19.8 
		L400.3,19.8 L400.5,19.9 L400.7,19.9 L400.9,19.9 L401.1,20.0 L401.3,20.0 L401.5,20.1 L401.7,20.1 
		L401.9,20.1 L402.1,20.2 L402.3,20.2 L402.5,20.3 L402.7,20.3 L402.9,20.4 L403.1,20.4 L403.3,20.5 
		L403.5,20.5 L403.7,20.6 L403.9,20.6 L404.0,20.7 L404.2,20.8 L404.4,20.8 L404.6,20.9 L404.8,20.9 
		L405.0,21.0 L405.2,21.1 L405.4,21.1 L405.6,21.2 L405.8,21.3 L406.0,21.4 L406.1,21.4 L406.3,21.5 
		L406.5,21.6 L406.7,21.7 L406.9,21.7 L407.1,21.8 L407.2,21.9 L407.4,22.0 L407.6,22.1 L407.8,22.1 
		L408.0,22.2 L408.2,22.3 L408.3,22.4 L408.5,22.5 L408.7,22.6 L408.9,22.7 L409.0,22.8 L409.2,22.9 
		L409.4,22.9 L409.6,23.0 L409.7,23.1 L409.9,23.2 L410.1,23.3 L410.2,23.4 L410.4,23.5 L410.6,23.6 
		L410.7,23.8 L410.9,23.9 L411.1,24.0 L411.2,24.1 L411.4,24.2 L411.6,24.3 L411.7,24.4 L411.9,24.5 
		L412.0,24.6 L412.2,24.7 L412.3,24.9 L412.5,25.0 L412.6,25.1 L412.8,25.2 L413.0,25.3 L413.1,25.5 
		L413.2,25.6 L413.4,25.7 L413.5,25.8 L413.7,25.9 L413.8,26.1 L414.0,26.2 L414.1,26.3 L414.3,26.5 
		L414.4,26.6 L414.5,26.7 L414.7,26.8 L414.8,27.0 L414.9,27.1 L415.1,27.2 L415.2,27.4 L415.3,27.5 
		L415.5,27.7 L415.6,27.8 L415.7,27.9 L415.8,28.1 L416.0,28.2 L416.1,28.3 L416.2,28.5 L416.3,28.6 
		L416.4,28.8 L416.5,28.9 L416.7,29.1 L416.8,29.2 L416.9,29.4 L417.0,29.5 L417.1,29.6 L417.2,29.8 
		L417.3,29.9 L417.4,30.1 L417.5,30.2 L417.6,30.4 L417.7,30.5 L417.8,30.7 L417.9,30.9 L418.0,31.0 
		L418.1,31.2 L418.2,31.3 L418.3,31.5 L418.4,31.6 L418.5,31.8 L418.5,31.9 L418.6,32.1 L418.7,32.2 
		L418.8,32.4 L418.9,32.6 L418.9,32.7 L419.0,32.9 L419.1,33.0 L419.2,33.2 L419.2,33.4 L419.3,33.5 
		L419.4,33.7 L419.4,33.8 L419.5,34.0 L419.6,34.2 L419.6,34.3 L419.7,34.5 L419.7,34.7 L419.8,34.8 
		L419.8,35.0 L419.9,35.2 L419.9,35.3 L420.0,35.5 L420.0,35.7 L420.1,35.8 L420.1,36.0 L420.2,36.1 
		L420.2,36.3 L420.3,36.5 L420.3,36.6 L420.3,36.8 L420.4,37.0 L420.4,37.1 L420.4,37.3 L420.4,37.5 
		L420.5,37.6 L420.5,37.8 L420.5,38.0 L420.5,38.1 L420.6,38.3 L420.6,38.5 L420.6,38.7 L420.6,38.8 
		L420.6,39.0 L420.6,39.2 L420.6,39.3 L420.6,39.5 L420.7,39.7 L420.7,39.8 L420.7,40.0 L420.7,40.2 
		L420.7,40.3  h0.01'/></g>
	</g>
	<g id="gnuplot_plot_7" ><title>gnuplot_plot_7</title>
<g style="fill:none; color:red; stroke:currentColor; stroke-width:1.00; stroke-linecap:butt; stroke-linejoin:miter">
	<path stroke='red'  d='M215.5,156.9 L215.5,157.1 L215.4,157.2 L215.4,157.3 L215.3,157.5 L215.2,157.6 L215.2,157.7 L215.1,157.8 
		L215.1,158.0 L215.0,158.1 L215.0,158.2 L214.9,158.3 L214.8,158.5 L214.8,158.6 L214.7,158.7 L214.7,158.8 
		L214.6,158.9 L214.5,159.0 L214.5,159.2 L214.4,159.3 L214.3,159.4 L214.3,159.5 L214.2,159.6 L214.1,159.7 
		L214.1,159.8 L214.0,159.9 L213.9,160.0 L213.9,160.1 L213.8,160.2 L213.7,160.3 L213.6,160.4 L213.6,160.5 
		L213.5,160.6 L213.4,160.7 L213.3,160.8 L213.2,160.9 L213.1,161.0 L213.0,161.1 L213.0,161.2 L212.9,161.2 
		L212.8,161.3 L212.7,161.4 L212.6,161.5 L212.5,161.6 L212.4,161.7 L212.3,161.7 L212.2,161.8 L212.2,161.9 
		L212.1,161.9 L212.0,162.0 L211.9,162.0 L211.8,162.1 L211.7,162.1 L211.6,162.2 L211.5,162.2 L211.5,162.3 
		L211.4,162.3 L211.3,162.4 L211.2,162.4 L211.1,162.5 L211.0,162.5 L210.9,162.5 L210.8,162.6 L210.7,162.6 
		L210.6,162.7 L210.5,162.7 L210.4,162.7 L210.3,162.8 L210.2,162.8 L210.1,162.8 L210.0,162.8 L209.9,162.9 
		L209.8,162.9 L209.7,162.9 L209.6,162.9 L209.5,162.9 L209.4,162.9 L209.3,162.9 L209.2,162.9 L209.1,162.9 
		L209.0,162.9 L208.9,162.9 L208.8,162.9 L208.7,162.9 L208.6,162.9 L208.5,162.9 L208.4,162.9 L208.3,162.9 
		L208.2,162.9 L208.1,162.9 L208.0,162.9 L207.9,162.9 L207.8,162.8 L207.7,162.8 L207.6,162.8 L207.5,162.8 
		L207.4,162.7 L207.3,162.7 L207.2,162.7 L207.1,162.7 L207.0,162.6 L206.9,162.6 L206.8,162.6 L206.7,162.5 
		L206.6,162.5 L206.5,162.4 L206.4,162.4 L206.3,162.3 L206.2,162.3 L206.1,162.2 L205.9,162.2 L205.8,162.1 
		L205.7,162.1 L205.6,162.0 L205.5,162.0 L205.4,161.9 L205.3,161.9 L205.2,161.8 L205.1,161.7 L205.0,161.7 
		L204.9,161.6 L204.8,161.5 L204.7,161.5 L204.6,161.4 L204.5,161.3 L204.4,161.2 L204.3,161.2 L204.2,161.1 
		L204.1,161.0 L204.0,160.9 L203.9,160.8 L203.8,160.7 L203.6,160.7 L203.5,160.6 L203.4,160.5 L203.3,160.4 
		L203.2,160.3 L203.1,160.2 L203.0,160.1 L202.9,160.0 L202.8,159.9 L202.7,159.8 L202.6,159.7 L202.5,159.6 
		L202.4,159.5 L202.3,159.4 L202.2,159.3 L202.1,159.2 L202.0,159.1 L201.9,158.9 L201.8,158.8 L201.7,158.7 
		L201.6,158.6 L201.5,158.5 L201.4,158.3 L201.3,158.2 L201.2,158.1 L201.1,158.0 L201.0,157.8 L200.9,157.7 
		L200.8,157.6 L200.7,157.5 L200.6,157.3 L200.5,157.2 L200.4,157.1 L200.3,156.9 L200.2,156.8 L200.1,156.6 
		L200.0,156.5 L199.9,156.4 L199.8,156.2 L199.7,156.1 L199.7,155.9 L199.6,155.8 L199.5,155.6 L199.4,155.5 
		L199.3,155.3 L199.2,155.2 L199.1,155.0 L199.0,154.9 L198.9,154.7 L198.8,154.6 L198.7,154.4 L198.6,154.3 
		L198.6,154.1 L198.5,153.9 L198.4,153.8 L198.3,153.6 L198.2,153.4 L198.1,153.3 L198.0,153.1 L198.0,152.9 
		L197.9,152.8 L197.8,152.6 L197.7,152.4 L197.6,152.3 L197.5,152.1 L197.5,151.9 L197.4,151.8 L197.3,151.6 
		L197.2,151.4 L197.1,151.2 L197.1,151.0 L197.0,150.9 L196.9,150.7 L196.8,150.5 L196.7,150.3 L196.7,150.1 
		L196.6,150.0 L196.5,149.8 L196.4,149.6 L196.4,149.4 L196.3,149.2 L196.2,149.0 L196.2,148.8 L196.1,148.7 
		L196.0,148.5 L196.0,148.3 L195.9,148.1 L195.8,147.9 L195.7,147.7 L195.7,147.5 L195.6,147.3 L195.6,147.1 
		L195.5,146.9 L195.4,146.7 L195.4,146.6 L195.3,146.4 L195.2,146.2 L195.2,146.0 L195.1,145.8 L195.1,145.6 
		L195.0,145.4 L194.9,145.2 L194.9,145.0 L194.8,144.8 L194.8,144.6 L194.7,144.4 L194.7,144.2 L194.6,144.0 
		L194.6,143.8 L194.5,143.6 L194.5,143.4 L194.4,143.2 L194.4,143.0 L194.3,142.8 L194.3,142.6 L194.2,142.4 
		L194.2,142.2 L194.1,141.9 L194.1,141.7 L194.0,141.5 L194.0,141.3 L194.0,141.1 L193.9,140.9 L193.9,140.7 
		L193.8,140.5 L193.8,140.3 L193.8,140.1 L193.7,139.9 L193.7,139.7 L193.7,139.5 L193.6,139.3 L193.6,139.1 
		L193.6,138.9 L193.5,138.7 L193.5,138.5 L193.5,138.3 L193.4,138.1 L193.4,137.9 L193.4,137.7 L193.4,137.5 
		L193.3,137.3 L193.3,137.0 L193.3,136.8 L193.3,136.6 L193.3,136.4 L193.2,136.2 L193.2,136.0 L193.2,135.8 
		L193.2,135.6 L193.2,135.4 L193.1,135.2 L193.1,135.0 L193.1,134.8 L193.1,134.6 L193.1,134.4 L193.1,134.2 
		L193.1,134.0 L193.1,133.8 L193.0,133.6 L193.0,133.4 L193.0,133.2 L193.0,133.0 L193.0,132.8 L193.0,132.6 
		L193.0,132.4 L193.0,132.3 L193.0,132.1 L193.0,131.9 L193.0,131.7 L193.0,131.5 L193.0,131.3 L193.0,131.1 
		L193.0,130.9 L193.0,130.7 L193.0,130.5 L193.0,130.3 L193.1,130.1 L193.1,130.0 L193.1,129.8 L193.1,129.6 
		L193.1,129.4 L193.1,129.2 L193.1,129.0 L193.1,128.9 L193.1,128.7 L193.2,128.5 L193.2,128.3 L193.2,128.1 
		L193.2,127.9 L193.2,127.8 L193.3,127.6 L193.3,127.4 L193.3,127.2 L193.3,127.1 L193.3,126.9 L193.4,126.7 
		L193.4,126.6 L193.4,126.4 L193.5,126.2 L193.5,126.0 L193.5,125.9 L193.5,125.7 L193.6,125.5 L193.6,125.4 
		L193.6,125.2 L193.7,125.1 L193.7,124.9 L193.7,124.7 L193.8,124.6 L193.8,124.4 L193.9,124.3 L193.9,124.1 
		L193.9,124.0 L194.0,123.8 L194.0,123.7 L194.1,123.5 L194.1,123.4 L194.1,123.2 L194.2,123.1 L194.2,122.9 
		L194.3,122.8 L194.3,122.6 L194.4,122.5 L194.4,122.3 L194.5,122.2 L194.5,122.1 L194.6,121.9 L194.6,121.8 
		L194.7,121.7 L194.7,121.5 L194.8,121.4 L194.8,121.3 L194.9,121.1 L195.0,121.0 L195.0,120.9 L195.1,120.8 
		L195.1,120.6 L195.2,120.5 L195.3,120.4 L195.3,120.3 L195.4,120.2 L195.4,120.1 L195.5,119.9 L195.6,119.8 
		L195.6,119.7 L195.7,119.6 L195.8,119.5 L195.8,119.4 L195.9,119.3 L196.0,119.2 L196.0,119.1 L196.1,119.0 
		L196.2,118.9 L196.2,118.8 L196.3,118.7 L196.4,118.6 L196.5,118.5 L196.5,118.4 L196.6,118.3 L196.7,118.2 
		L196.8,118.2 L196.8,118.1 L196.9,118.0 L197.0,117.9 L197.1,117.8 L197.2,117.7 L197.3,117.6 L197.4,117.5 
		L197.5,117.5 L197.6,117.4 L197.6,117.3 L197.7,117.3 L197.8,117.2 L197.9,117.1 L198.0,117.1 L198.1,117.0 
		L198.1,116.9 L198.2,116.9 L198.3,116.8 L198.4,116.8 L198.5,116.7 L198.6,116.7 L198.7,116.6 L198.8,116.6 
		L198.9,116.5 L199.0,116.5 L199.1,116.4 L199.2,116.4 L199.3,116.4 L199.4,116.3 L199.5,116.3 L199.6,116.3 
		L199.7,116.2 L199.8,116.2 L199.9,116.2 L200.0,116.2 L200.1,116.1 L200.2,116.1 L200.3,116.1 L200.4,116.1 
		L200.5,116.1 L200.6,116.1 L200.7,116.1 L200.8,116.0 L200.9,116.0 L201.0,116.0 L201.1,116.0 L201.2,116.0 
		L201.3,116.0 L201.4,116.0 L201.5,116.1 L201.6,116.1 L201.7,116.1 L201.8,116.1 L201.9,116.1 L202.0,116.1 
		L202.1,116.1 L202.2,116.1 L202.3,116.2 L202.4,116.2 L202.5,116.2 L202.6,116.2 L202.7,116.3 L202.8,116.3 
		L202.9,116.3 L203.0,116.4 L203.2,116.4 L203.3,116.4 L203.4,116.5 L203.5,116.5 L203.6,116.5 L203.7,116.6 
		L203.8,116.6 L203.9,116.7 L204.0,116.7 L204.1,116.8 L204.2,116.8 L204.3,116.9 L204.4,116.9 L204.5,117.0 
		L204.6,117.1 L204.7,117.1 L204.8,117.2 L204.9,117.2 L205.0,117.3 L205.1,117.4 L205.2,117.5 L205.3,117.5 
		L205.5,117.6 L205.6,117.7 L205.7,117.7 L205.8,117.8 L205.9,117.9 L206.0,118.0 L206.1,118.1 L206.2,118.1 
		L206.3,118.2 L206.4,118.3 L206.5,118.4 L206.6,118.5 L206.7,118.6 L206.8,118.7 L206.9,118.8 L207.0,118.9 
		L207.1,119.0 L207.2,119.1 L207.3,119.2 L207.4,119.3 L207.5,119.4 L207.6,119.5 L207.7,119.6 L207.8,119.7 
		L207.9,119.8 L208.0,119.9 L208.1,120.0 L208.2,120.2 L208.3,120.3 L208.4,120.4 L208.5,120.5 L208.6,120.6 
		L208.7,120.8 L208.8,120.9 L208.9,121.0 L209.0,121.1 L209.1,121.3 L209.2,121.4 L209.3,121.5 L209.4,121.7 
		L209.5,121.8 L209.6,121.9 L209.7,122.1 L209.8,122.2 L209.9,122.3 L210.0,122.5 L210.1,122.6 L210.2,122.8 
		L210.3,122.9 L210.4,123.0 L210.5,123.2 L210.6,123.3 L210.7,123.5 L210.8,123.6 L210.9,123.8 L210.9,123.9 
		L211.0,124.1 L211.1,124.3 L211.2,124.4 L211.3,124.6 L211.4,124.7 L211.5,124.9 L211.6,125.0 L211.7,125.2 
		L211.7,125.4 L211.8,125.5 L211.9,125.7 L212.0,125.9 L212.1,126.0 L212.2,126.2 L212.3,126.4 L212.3,126.5 
		L212.4,126.7 L212.5,126.9 L212.6,127.1 L212.7,127.2 L212.7,127.4 L212.8,127.6 L212.9,127.8 L213.0,127.9 
		L213.1,128.1 L213.1,128.3 L213.2,128.5 L213.3,128.7 L213.4,128.8 L213.4,129.0 L213.5,129.2 L213.6,129.4 
		L213.7,129.6 L213.7,129.8 L213.8,129.9 L213.9,130.1 L213.9,130.3 L214.0,130.5 L214.1,130.7 L214.2,130.9 
		L214.2,131.1 L214.3,131.3 L214.4,131.5 L214.4,131.7 L214.5,131.8 L214.6,132.0 L214.6,132.2 L214.7,132.4 
		L214.7,132.6 L214.8,132.8 L214.9,133.0 L214.9,133.2 L215.0,133.4 L215.0,133.6 L215.1,133.8 L215.2,134.0 
		L215.2,134.2 L215.3,134.4 L215.3,134.6 L215.4,134.8 L215.4,135.0 L215.5,135.2 L215.5,135.4 L215.6,135.6 
		L215.6,135.8 L215.7,136.0 L215.7,136.2 L215.8,136.4 L215.8,136.6 L215.9,136.8 L215.9,137.0 L215.9,137.2 
		L216.0,137.4 L216.0,137.6 L216.1,137.8 L216.1,138.1 L216.2,138.3 L216.2,138.5 L216.2,138.7 L216.3,138.9 
		L216.3,139.1 L216.3,139.3 L216.4,139.5 L216.4,139.7 L216.4,139.9 L216.5,140.1 L216.5,140.3 L216.5,140.5 
		L216.6,140.7 L216.6,140.9 L216.6,141.1 L216.6,141.3 L216.7,141.5 L216.7,141.7 L216.7,141.9 L216.7,142.1 
		L216.8,142.3 L216.8,142.5 L216.8,142.7 L216.8,142.9 L216.8,143.2 L216.9,143.4 L216.9,143.6 L216.9,143.8 
		L216.9,144.0 L216.9,144.2 L216.9,144.4 L216.9,144.6 L217.0,144.8 L217.0,145.0 L217.0,145.2 L217.0,145.4 
		L217.0,145.6 L217.0,145.8 L217.0,145.9 L217.0,146.1 L217.0,146.3 L217.0,146.5 L217.0,146.7 L217.0,146.9 
		L217.0,147.1 L217.0,147.3 L217.0,147.5 L217.0,147.7 L217.0,147.9 L217.0,148.1 L217.0,148.3 L217.0,148.5 
		L217.0,148.6 L217.0,148.8 L217.0,149.0 L217.0,149.2 L217.0,149.4 L216.9,149.6 L216.9,149.8 L216.9,149.9 
		L216.9,150.1 L216.9,150.3 L216.9,150.5 L216.9,150.7 L216.8,150.9 L216.8,151.0 L216.8,151.2 L216.8,151.4 
		L216.8,151.6 L216.7,151.7 L216.7,151.9 L216.7,152.1 L216.7,152.3 L216.6,152.4 L216.6,152.6 L216.6,152.8 
		L216.6,152.9 L216.5,153.1 L216.5,153.3 L216.5,153.4 L216.4,153.6 L216.4,153.8 L216.4,153.9 L216.3,154.1 
		L216.3,154.2 L216.3,154.4 L216.2,154.6 L216.2,154.7 L216.1,154.9 L216.1,155.0 L216.1,155.2 L216.0,155.3 
		L216.0,155.5 L215.9,155.6 L215.9,155.8 L215.9,155.9 L215.8,156.1 L215.8,156.2 L215.7,156.4 L215.7,156.5 
		L215.6,156.6 L215.6,156.8 L215.5,156.9  h0.01'/></g>
	</g>
<g style="fill:none; color:black; stroke:currentColor; stroke-width:1.00; stroke-linecap:butt; stroke-linejoin:miter">
	<path stroke='black'  d='M84.0,19.5 L84.0,412.8 L570.8,412.8 L570.8,19.5 L84.0,19.5 Z  h0.01'/></g>
</g>
</svg>

