0.378511623253742 1.09
0.378511623253742 1.17
0.378511623253742 1.10
0.378511623253742 1.15
0.378511623253742 1.10
0.485426827170248 1.10
0.378511623253742 1.11
0.378511623253742 1.16
0.378511623253742 1.15
0.378511623253742 1.17
0.378511623253742 1.09
0.378511623253742 1.03
0.378511623253742 1.11
0.378511623253742 1.17
0.378511623253742 1.11
0.378511623253742 1.10
0.378511623253742 1.16
0.378511623253742 1.06
0.378511623253742 1.09
0.378511623253742 1.10
0.378511623253742 1.08
0.378511623253742 1.13
0.378511623253742 1.17
0.378511623253742 1.08
0.378511623253742 1.15
0.378511623253742 1.10
0.378511623253742 1.12
0.378511623253742 1.12
0.378511623253742 1.14
0.378511623253742 1.10
0.378511623253742 1.14
0.378511623253742 1.12
0.378511623253742 1.10
0.378511623253742 1.09
0.378511623253742 1.10
0.378511623253742 1.09
0.378511623253742 1.08
0.378511623253742 1.07
0.378511623253742 1.12
0.378511623253742 1.12
0.378511623253742 1.09
0.378511623253742 1.14
0.378511623253742 1.10
0.378511623253742 1.18
0.378511623253742 1.08
0.378511623253742 1.10
0.378511623253742 1.12
0.378511623253742 1.07
0.378511623253742 1.10
0.378511623253742 1.10
0.378511623253742 1.07
0.378511623253742 1.15
0.378511623253742 1.08
0.378511623253742 1.16
0.378511623253742 1.09
0.378511623253742 1.09
0.378511623253742 1.01
0.378511623253742 1.09
0.378511623253742 1.13
0.378511623253742 1.14
0.378511623253742 1.16
0.378511623253742 1.18
0.378511623253742 1.14
0.485426827170248 1.08
0.378511623253742 1.04
0.378511623253742 1.06
0.378511623253742 1.12
0.378511623253742 1.15
0.378511623253742 1.10
0.378511623253742 1.10
0.378511623253742 1.11
0.485426827170248 1.07
0.378511623253742 1.13
0.378511623253742 1.13
0.378511623253742 1.06
0.378511623253742 1.05
0.378511623253742 1.12
0.378511623253742 1.13
0.378511623253742 1.07
0.378511623253742 1.06
0.378511623253742 1.06
0.378511623253742 1.08
0.378511623253742 1.11
0.378511623253742 1.12
0.378511623253742 1.13
0.378511623253742 1.13
0.378511623253742 1.16
0.378511623253742 1.08
0.378511623253742 1.10
0.378511623253742 1.15
0.378511623253742 1.09
0.378511623253742 1.14
0.485426827170248 1.12
0.378511623253742 1.08
0.378511623253742 1.12
0.378511623253742 1.16
0.378511623253742 1.13
0.378511623253742 1.06
0.485426827170248 1.11
0.378511623253742 1.11
0.378511623253742 1.08
0.378511623253742 1.16
0.378511623253742 1.10
0.378511623253742 1.12
0.378511623253742 1.11
0.378511623253742 1.10
0.378511623253742 1.09
0.378511623253742 1.10
0.378511623253742 1.18
0.485426827170248 1.03
0.378511623253742 1.10
0.378511623253742 1.14
0.378511623253742 1.07
0.378511623253742 1.06
0.378511623253742 1.14
0.378511623253742 1.15
0.378511623253742 1.06
0.378511623253742 1.07
0.378511623253742 1.06
0.378511623253742 1.06
0.378511623253742 1.14
0.378511623253742 1.10
0.378511623253742 1.06
0.378511623253742 1.12
0.378511623253742 1.12
0.378511623253742 1.10
0.378511623253742 1.10
0.378511623253742 1.15
0.378511623253742 1.21
0.485426827170248 1.11
0.485426827170248 1.07
0.485426827170248 1.06
0.378511623253742 1.08
0.378511623253742 1.06
0.378511623253742 1.19
0.378511623253742 1.08
0.378511623253742 1.11
0.378511623253742 1.13
0.378511623253742 1.07
0.378511623253742 1.12
0.378511623253742 1.10
0.378511623253742 1.12
0.378511623253742 1.10
0.378511623253742 1.12
0.378511623253742 1.11
0.378511623253742 1.20
0.378511623253742 1.12
0.378511623253742 1.12
0.378511623253742 1.06
0.378511623253742 1.10
0.378511623253742 1.07
0.378511623253742 1.13
0.378511623253742 1.13
0.378511623253742 1.07
0.378511623253742 1.10
0.378511623253742 1.11
0.378511623253742 1.10
0.378511623253742 1.04
0.378511623253742 1.09
0.378511623253742 1.09
0.378511623253742 1.11
0.485426827170248 1.05
0.378511623253742 1.13
0.378511623253742 1.12
0.485426827170248 1.11
0.378511623253742 1.12
0.378511623253742 1.10
0.378511623253742 1.14
0.485426827170248 1.11
0.378511623253742 1.07
0.485426827170248 1.09
0.378511623253742 1.15
0.378511623253742 1.14
0.378511623253742 1.15
0.378511623253742 1.09
0.485426827170248 1.20
0.378511623253742 1.06
0.378511623253742 1.16
0.378511623253742 1.17
0.378511623253742 1.12
0.378511623253742 1.11
0.378511623253742 1.10
0.378511623253742 1.12
0.378511623253742 1.07
0.378511623253742 1.09
0.378511623253742 1.14
0.378511623253742 1.04
0.378511623253742 1.18
0.378511623253742 1.10
0.378511623253742 1.17
0.378511623253742 1.11
0.378511623253742 1.11
0.378511623253742 1.11
0.378511623253742 1.14
0.378511623253742 1.10
0.378511623253742 1.06
0.378511623253742 1.07
0.378511623253742 1.15
0.378511623253742 1.05
0.378511623253742 1.14
0.378511623253742 1.12
0.378511623253742 1.12
0.378511623253742 1.11
0.378511623253742 1.11
0.378511623253742 1.06
0.378511623253742 1.16
0.378511623253742 1.16
0.378511623253742 1.10
0.378511623253742 1.13
0.378511623253742 1.11
0.378511623253742 1.09
0.378511623253742 1.09
0.378511623253742 1.09
0.378511623253742 1.13
0.378511623253742 1.10
0.378511623253742 1.13
0.378511623253742 1.11
0.378511623253742 1.10
0.378511623253742 1.09
0.378511623253742 1.13
0.485426827170248 1.11
0.378511623253742 1.08
0.378511623253742 1.15
0.378511623253742 1.15
0.378511623253742 1.09
0.378511623253742 1.14
0.378511623253742 1.12
0.378511623253742 1.10
0.378511623253742 1.14
0.378511623253742 1.11
0.378511623253742 1.15
0.378511623253742 1.18
0.378511623253742 1.08
0.378511623253742 1.13
0.378511623253742 1.13
0.378511623253742 1.07
0.378511623253742 1.15
0.378511623253742 1.11
0.378511623253742 1.10
0.378511623253742 1.12
0.378511623253742 1.08
0.378511623253742 1.07
0.378511623253742 1.08
0.378511623253742 1.08
0.378511623253742 1.09
0.378511623253742 1.08
0.378511623253742 1.17
0.378511623253742 1.16
0.378511623253742 1.12
0.378511623253742 1.11
0.485426827170248 1.07
0.378511623253742 1.15
0.378511623253742 1.09
0.378511623253742 1.12
0.485426827170248 1.08
0.378511623253742 1.05
0.378511623253742 1.11
0.378511623253742 1.12
0.485426827170248 1.07
0.378511623253742 1.14
0.378511623253742 1.12
0.378511623253742 1.10
0.485426827170248 1.10
0.378511623253742 1.14
0.378511623253742 1.12
0.378511623253742 1.09
0.485426827170248 1.11
0.485426827170248 1.14
0.378511623253742 1.20
0.378511623253742 1.07
0.378511623253742 1.19
0.378511623253742 1.13
0.485426827170248 1.09
0.378511623253742 1.12
0.378511623253742 1.06
0.378511623253742 1.12
0.378511623253742 1.12
0.378511623253742 1.07
0.378511623253742 1.12
0.378511623253742 1.13
0.378511623253742 1.04
0.378511623253742 1.09
0.378511623253742 1.09
0.378511623253742 1.14
0.378511623253742 1.14
0.378511623253742 1.09
0.378511623253742 1.08
0.378511623253742 1.09
0.378511623253742 1.16
0.485426827170248 1.09
0.378511623253742 1.12
0.485426827170248 1.09
0.378511623253742 1.10
0.485426827170248 1.08
0.378511623253742 1.17
0.378511623253742 1.14
0.378511623253742 1.15
0.378511623253742 1.09
0.378511623253742 1.18
0.378511623253742 1.10
0.378511623253742 1.09
0.378511623253742 1.10
0.378511623253742 1.09
0.378511623253742 1.12
0.485426827170248 1.14
0.378511623253742 1.11
0.378511623253742 1.11
0.378511623253742 1.16
0.378511623253742 1.17
0.378511623253742 1.09
0.485426827170248 1.21
0.378511623253742 1.11
0.378511623253742 1.09
0.485426827170248 1.12
0.378511623253742 1.11
0.378511623253742 1.05
0.378511623253742 1.14
0.378511623253742 1.15
0.378511623253742 1.09
0.378511623253742 1.15
0.378511623253742 1.07
0.378511623253742 1.11
0.378511623253742 1.14
0.378511623253742 1.09
0.378511623253742 1.18
0.378511623253742 1.04
0.378511623253742 1.12
0.378511623253742 1.08
0.378511623253742 1.09
0.378511623253742 1.15
0.378511623253742 1.13
0.378511623253742 1.07
0.378511623253742 1.16
0.378511623253742 1.07
0.378511623253742 1.09
0.378511623253742 1.07
0.378511623253742 1.13
0.378511623253742 1.20
0.378511623253742 1.09
0.378511623253742 1.16
0.378511623253742 1.13
0.378511623253742 1.16
0.485426827170248 1.12
0.485426827170248 1.08
0.378511623253742 1.10
0.378511623253742 1.06
0.378511623253742 1.13
0.485426827170248 1.13
0.378511623253742 1.16
0.378511623253742 1.16
0.378511623253742 1.08
0.378511623253742 1.16
0.378511623253742 1.15
0.378511623253742 1.06
0.378511623253742 1.13
0.378511623253742 1.09
0.378511623253742 1.09
0.378511623253742 1.07
0.378511623253742 1.17
0.378511623253742 1.06
0.378511623253742 1.11
0.378511623253742 1.13
0.378511623253742 1.12
0.378511623253742 1.07
0.378511623253742 1.09
0.378511623253742 1.07
0.378511623253742 1.11
0.378511623253742 1.06
0.378511623253742 1.05
0.378511623253742 1.08
0.378511623253742 1.19
0.378511623253742 1.16
0.378511623253742 1.07
0.378511623253742 1.11
0.378511623253742 1.06
0.378511623253742 1.07
0.378511623253742 1.10
0.378511623253742 1.13
0.378511623253742 1.15
0.378511623253742 1.09
0.378511623253742 1.07
0.378511623253742 1.09
0.378511623253742 1.10
0.378511623253742 1.06
0.485426827170248 1.10
0.378511623253742 1.13
0.378511623253742 1.10
0.378511623253742 1.14
0.485426827170248 1.04
0.485426827170248 1.18
0.378511623253742 1.09
0.378511623253742 1.05
0.378511623253742 1.07
0.378511623253742 1.07
0.378511623253742 1.10
0.378511623253742 1.13
0.378511623253742 1.09
0.378511623253742 1.10
0.378511623253742 1.09
0.378511623253742 1.16
0.378511623253742 1.06
0.378511623253742 1.07
0.378511623253742 1.04
0.378511623253742 1.11
0.378511623253742 1.11
0.378511623253742 1.13
0.378511623253742 1.14
0.378511623253742 1.13
0.485426827170248 1.09
0.378511623253742 1.09
0.378511623253742 1.10
0.378511623253742 1.18
0.378511623253742 1.15
0.378511623253742 1.12
0.378511623253742 1.11
0.378511623253742 1.14
0.378511623253742 1.12
0.378511623253742 1.15
0.485426827170248 1.06
0.378511623253742 1.17
0.378511623253742 1.15
0.378511623253742 1.12
0.485426827170248 1.00
0.378511623253742 1.12
0.378511623253742 1.04
0.378511623253742 1.14
0.378511623253742 1.13
0.378511623253742 1.14
0.378511623253742 1.10
0.378511623253742 1.11
0.378511623253742 1.11
0.378511623253742 1.17
0.378511623253742 1.09
0.378511623253742 1.15
0.378511623253742 1.13
0.378511623253742 1.16
0.378511623253742 1.17
0.378511623253742 1.13
0.378511623253742 1.15
0.378511623253742 1.10
0.378511623253742 1.17
0.378511623253742 1.07
0.378511623253742 1.15
0.378511623253742 1.11
0.378511623253742 1.08
0.378511623253742 1.06
0.378511623253742 1.16
0.485426827170248 1.14
0.378511623253742 1.11
0.378511623253742 1.14
0.378511623253742 1.11
0.378511623253742 1.06
0.378511623253742 1.04
0.378511623253742 1.13
0.378511623253742 1.14
0.378511623253742 1.15
0.378511623253742 1.20
0.378511623253742 1.14
0.378511623253742 1.08
0.378511623253742 1.06
0.485426827170248 1.10
0.378511623253742 1.10
0.378511623253742 1.11
0.485426827170248 1.16
0.378511623253742 1.07
0.378511623253742 1.18
0.378511623253742 1.11
0.378511623253742 1.17
0.378511623253742 1.11
0.378511623253742 1.13
0.378511623253742 1.11
0.378511623253742 1.15
0.378511623253742 1.12
0.378511623253742 1.10
0.378511623253742 1.09
0.378511623253742 1.09
0.378511623253742 1.05
0.378511623253742 1.12
0.378511623253742 1.09
0.378511623253742 1.09
0.485426827170248 1.12
0.378511623253742 1.11
0.378511623253742 1.12
0.378511623253742 1.14
0.485426827170248 1.11
0.378511623253742 1.15
0.378511623253742 1.12
0.378511623253742 1.17
0.378511623253742 1.16
0.378511623253742 1.16
0.378511623253742 1.11
0.378511623253742 1.05
0.378511623253742 1.12
0.378511623253742 1.08
0.485426827170248 1.08
0.378511623253742 1.13
0.378511623253742 1.05
0.378511623253742 1.13
0.378511623253742 1.14
0.378511623253742 1.06
0.485426827170248 1.08
0.378511623253742 1.14
0.378511623253742 1.11
0.378511623253742 1.13
0.378511623253742 1.09
0.378511623253742 1.11
0.378511623253742 1.07
0.378511623253742 1.09
0.378511623253742 1.14
0.378511623253742 1.12
0.485426827170248 1.10
0.378511623253742 1.08
0.378511623253742 1.03
0.378511623253742 1.14
0.378511623253742 1.11
0.378511623253742 1.06
0.378511623253742 1.12
0.378511623253742 1.08
0.378511623253742 1.11
0.378511623253742 1.14
0.378511623253742 1.03
0.378511623253742 1.09
0.378511623253742 1.07
0.378511623253742 1.08
0.378511623253742 1.12
0.378511623253742 1.09
0.378511623253742 1.07
0.378511623253742 1.10
0.378511623253742 1.10
0.378511623253742 1.11
0.485426827170248 1.16
0.378511623253742 1.22
0.378511623253742 1.12
0.485426827170248 1.10
0.378511623253742 1.08
0.378511623253742 1.14
0.485426827170248 1.18
0.378511623253742 1.18
0.378511623253742 1.09
0.485426827170248 1.07
0.485426827170248 1.06
0.485426827170248 1.10
0.485426827170248 1.10
0.485426827170248 1.05
0.378511623253742 1.16
0.485426827170248 1.13
0.378511623253742 1.10
0.485426827170248 1.08
0.378511623253742 1.18
0.485426827170248 1.14
0.378511623253742 1.13
0.378511623253742 1.09
0.378511623253742 1.13
0.378511623253742 1.12
0.378511623253742 1.13
0.378511623253742 1.11
0.378511623253742 1.08
0.378511623253742 1.03
0.378511623253742 1.09
0.378511623253742 1.12
0.378511623253742 1.12
0.378511623253742 1.15
0.378511623253742 1.17
0.378511623253742 1.10
0.378511623253742 1.12
0.378511623253742 1.11
0.378511623253742 1.13
0.378511623253742 1.08
0.378511623253742 1.11
0.378511623253742 1.10
0.378511623253742 1.06
0.378511623253742 1.04
0.378511623253742 1.09
0.378511623253742 1.09
0.378511623253742 1.11
0.378511623253742 1.12
0.378511623253742 1.13
0.378511623253742 1.15
0.378511623253742 1.10
0.378511623253742 1.15
0.378511623253742 1.08
0.378511623253742 1.08
0.378511623253742 1.08
0.378511623253742 1.05
0.378511623253742 1.09
0.378511623253742 1.15
0.378511623253742 1.10
0.378511623253742 1.09
0.378511623253742 1.09
0.378511623253742 1.12
0.378511623253742 1.13
0.378511623253742 1.12
0.378511623253742 1.10
0.378511623253742 1.14
0.378511623253742 1.08
0.378511623253742 1.15
0.378511623253742 1.11
0.378511623253742 1.12
0.378511623253742 1.10
0.378511623253742 1.04
0.378511623253742 1.09
0.378511623253742 1.12
0.485426827170248 1.14
0.378511623253742 1.10
0.378511623253742 1.12
0.378511623253742 1.18
0.378511623253742 1.16
0.378511623253742 1.08
0.378511623253742 1.13
0.378511623253742 1.07
0.378511623253742 1.13
0.378511623253742 1.10
0.378511623253742 1.11
0.378511623253742 1.15
0.378511623253742 1.08
0.378511623253742 1.09
0.485426827170248 1.11
0.378511623253742 1.19
0.378511623253742 1.16
0.378511623253742 1.13
0.378511623253742 1.06
0.378511623253742 1.12
0.378511623253742 1.12
0.378511623253742 1.05
0.378511623253742 1.14
0.378511623253742 1.14
0.378511623253742 1.10
0.378511623253742 1.15
0.378511623253742 1.07
0.378511623253742 1.13
0.378511623253742 1.10
0.378511623253742 1.10
0.378511623253742 1.09
0.378511623253742 1.16
0.378511623253742 1.11
0.378511623253742 1.14
0.378511623253742 1.13
0.378511623253742 1.12
0.378511623253742 1.04
0.485426827170248 1.06
0.378511623253742 1.09
0.378511623253742 1.11
0.378511623253742 1.16
0.378511623253742 1.13
0.378511623253742 1.11
0.378511623253742 1.13
0.378511623253742 1.14
0.378511623253742 1.16
0.378511623253742 1.09
0.378511623253742 1.15
0.378511623253742 1.07
0.378511623253742 1.11
0.485426827170248 1.07
0.378511623253742 1.05
0.378511623253742 1.16
0.378511623253742 1.12
0.378511623253742 1.13
0.378511623253742 1.11
0.378511623253742 1.09
0.378511623253742 1.13
0.485426827170248 1.09
0.378511623253742 1.11
0.378511623253742 1.11
0.378511623253742 1.16
0.485426827170248 1.10
0.378511623253742 1.10
0.485426827170248 1.11
0.378511623253742 1.16
0.378511623253742 1.17
0.485426827170248 1.09
0.378511623253742 1.14
0.378511623253742 1.09
0.378511623253742 1.16
0.378511623253742 1.09
0.378511623253742 1.12
0.378511623253742 1.11
0.378511623253742 1.06
0.378511623253742 1.12
0.378511623253742 1.19
0.378511623253742 1.08
0.378511623253742 1.08
0.378511623253742 1.09
0.378511623253742 1.11
0.378511623253742 1.12
0.378511623253742 1.06
0.378511623253742 1.10
0.378511623253742 1.12
0.378511623253742 1.16
0.378511623253742 1.00
0.378511623253742 1.09
0.378511623253742 1.18
0.378511623253742 1.18
0.378511623253742 1.12
0.378511623253742 1.18
0.378511623253742 1.11
0.378511623253742 1.12
0.378511623253742 1.08
0.378511623253742 1.08
0.378511623253742 1.07
0.378511623253742 1.10
0.378511623253742 1.11
0.378511623253742 1.09
0.378511623253742 1.08
0.378511623253742 1.10
0.378511623253742 1.20
0.378511623253742 1.15
0.378511623253742 1.09
0.378511623253742 1.09
0.378511623253742 1.11
0.485426827170248 1.07
0.378511623253742 1.10
0.378511623253742 1.14
0.378511623253742 1.15
0.378511623253742 1.13
0.378511623253742 1.09
0.378511623253742 1.05
0.378511623253742 1.10
0.378511623253742 1.12
0.378511623253742 1.18
0.378511623253742 1.09
0.378511623253742 1.12
0.378511623253742 1.10
0.378511623253742 1.09
0.378511623253742 1.15
0.378511623253742 1.12
0.378511623253742 1.10
0.378511623253742 1.09
0.378511623253742 1.16
0.378511623253742 1.13
0.378511623253742 1.13
0.378511623253742 1.13
0.378511623253742 1.07
0.378511623253742 1.09
0.378511623253742 1.10
0.378511623253742 1.10
0.378511623253742 1.05
0.378511623253742 1.16
0.485426827170248 1.10
0.378511623253742 1.09
0.378511623253742 1.13
0.378511623253742 1.08
0.378511623253742 1.09
0.378511623253742 1.15
0.378511623253742 1.02
0.378511623253742 1.12
0.378511623253742 1.14
0.378511623253742 1.10
0.378511623253742 1.14
0.378511623253742 1.11
0.378511623253742 1.10
0.378511623253742 1.17
0.378511623253742 1.05
0.378511623253742 1.08
0.378511623253742 1.18
0.378511623253742 1.05
0.378511623253742 1.07
0.378511623253742 1.11
0.378511623253742 1.13
0.378511623253742 1.09
0.378511623253742 1.10
0.378511623253742 1.10
0.378511623253742 1.12
0.378511623253742 1.10
0.378511623253742 1.14
0.378511623253742 1.13
0.378511623253742 1.11
0.378511623253742 1.01
0.378511623253742 1.05
0.378511623253742 1.15
0.378511623253742 1.14
0.378511623253742 1.11
0.378511623253742 1.11
0.378511623253742 1.11
0.378511623253742 1.10
0.378511623253742 1.13
0.378511623253742 1.08
0.378511623253742 1.06
0.378511623253742 1.08
0.378511623253742 1.11
0.378511623253742 1.09
0.378511623253742 1.08
0.378511623253742 1.12
0.378511623253742 1.08
0.378511623253742 1.08
0.378511623253742 1.12
0.378511623253742 1.08
0.378511623253742 1.02
0.378511623253742 1.07
0.378511623253742 1.14
0.378511623253742 1.12
0.378511623253742 1.08
0.378511623253742 1.09
0.378511623253742 1.12
0.378511623253742 1.10
0.378511623253742 1.15
0.378511623253742 1.11
0.378511623253742 1.12
0.378511623253742 1.09
0.378511623253742 1.07
0.378511623253742 1.08
0.378511623253742 1.08
0.378511623253742 1.11
0.378511623253742 1.12
0.378511623253742 1.08
0.378511623253742 1.11
0.378511623253742 1.08
0.378511623253742 1.10
0.378511623253742 1.14
0.378511623253742 1.12
0.378511623253742 1.15
0.378511623253742 1.10
0.378511623253742 1.06
0.378511623253742 1.05
0.378511623253742 1.11
0.378511623253742 1.10
0.378511623253742 1.15
0.485426827170248 1.10
0.378511623253742 1.18
0.378511623253742 1.08
0.378511623253742 1.07
0.378511623253742 1.17
0.485426827170248 1.09
0.378511623253742 1.11
0.378511623253742 1.11
0.378511623253742 1.20
0.378511623253742 1.13
0.485426827170248 1.09
0.378511623253742 1.12
0.378511623253742 1.12
0.378511623253742 1.12
0.378511623253742 1.11
0.378511623253742 1.12
0.378511623253742 1.09
0.378511623253742 1.10
0.378511623253742 1.11
0.485426827170248 1.09
0.378511623253742 1.18
0.378511623253742 1.13
0.378511623253742 1.10
0.378511623253742 1.08
0.378511623253742 1.09
0.378511623253742 1.12
0.378511623253742 1.07
0.378511623253742 1.08
0.378511623253742 1.10
0.378511623253742 1.11
0.378511623253742 1.09
0.378511623253742 1.15
0.378511623253742 1.15
0.378511623253742 1.06
0.378511623253742 1.10
0.378511623253742 1.07
0.378511623253742 1.07
0.378511623253742 1.12
0.378511623253742 1.15
0.378511623253742 1.10
0.378511623253742 1.12
0.378511623253742 1.16
0.378511623253742 1.12
0.378511623253742 1.13
0.485426827170248 1.11
0.378511623253742 1.12
0.378511623253742 1.08
0.378511623253742 1.18
0.378511623253742 1.13
0.378511623253742 1.12
0.378511623253742 1.13
0.378511623253742 1.11
0.378511623253742 1.12
0.378511623253742 1.14
0.378511623253742 1.05
0.378511623253742 1.09
0.378511623253742 1.13
0.378511623253742 1.11
0.378511623253742 1.09
0.378511623253742 1.11
0.378511623253742 1.07
0.378511623253742 1.13
0.378511623253742 1.13
0.378511623253742 1.12
0.378511623253742 1.12
0.378511623253742 1.08
0.378511623253742 1.15
0.378511623253742 1.08
0.378511623253742 1.12
0.485426827170248 1.10
0.378511623253742 1.10
0.378511623253742 1.11
0.378511623253742 1.11
0.378511623253742 1.15
0.378511623253742 1.10
0.378511623253742 1.08
0.378511623253742 1.08
0.378511623253742 1.10
0.378511623253742 1.08
0.378511623253742 1.04
0.378511623253742 1.12
0.378511623253742 1.11
0.378511623253742 1.07
0.378511623253742 1.15
0.378511623253742 1.11
0.378511623253742 1.10
0.378511623253742 1.12
0.378511623253742 1.06
0.378511623253742 1.10
0.378511623253742 1.06
0.378511623253742 1.15
0.378511623253742 1.16
0.378511623253742 1.12
0.378511623253742 1.13
0.378511623253742 1.11
0.378511623253742 1.13
0.378511623253742 1.16
0.378511623253742 1.15
0.378511623253742 1.09
0.378511623253742 1.12
0.378511623253742 1.06
0.378511623253742 1.16
0.378511623253742 1.11
0.378511623253742 1.11
0.378511623253742 1.09
0.378511623253742 1.10
0.378511623253742 1.09
0.378511623253742 1.10
0.378511623253742 1.09
0.378511623253742 1.07
0.378511623253742 1.15
0.378511623253742 1.08
0.485426827170248 1.14
0.378511623253742 1.16
0.378511623253742 1.06
0.378511623253742 1.07
0.378511623253742 1.17
0.378511623253742 1.11
0.378511623253742 1.11
0.378511623253742 1.17
0.378511623253742 1.04
0.378511623253742 1.07
0.378511623253742 1.09
0.378511623253742 1.12
0.378511623253742 1.10
0.378511623253742 1.14
0.378511623253742 1.09
0.378511623253742 1.10
0.378511623253742 1.18
0.378511623253742 1.04
0.378511623253742 1.11
0.378511623253742 1.10
0.485426827170248 1.11
0.378511623253742 1.09
0.378511623253742 1.12
0.378511623253742 1.15
0.378511623253742 1.09
0.378511623253742 1.09
0.378511623253742 1.08
0.378511623253742 1.12
0.378511623253742 1.11
0.378511623253742 1.14
0.378511623253742 1.11
0.378511623253742 1.07
0.378511623253742 1.10
0.378511623253742 1.11
0.378511623253742 1.12
0.378511623253742 1.11
0.378511623253742 1.16
0.378511623253742 1.08
0.378511623253742 1.12
0.378511623253742 1.11
0.378511623253742 1.17
0.378511623253742 1.07
0.378511623253742 1.06
0.378511623253742 1.10
0.378511623253742 1.12
0.378511623253742 1.09
0.378511623253742 1.14
0.378511623253742 1.15
0.378511623253742 1.12
0.378511623253742 1.08
0.378511623253742 1.14
0.378511623253742 1.08
0.378511623253742 1.12
0.378511623253742 1.05
0.378511623253742 1.11
0.378511623253742 1.15
0.378511623253742 1.13
0.378511623253742 1.10
0.378511623253742 1.13
0.485426827170248 1.05
0.378511623253742 1.10
0.378511623253742 1.12
0.378511623253742 1.10
0.378511623253742 1.14
0.378511623253742 1.06
0.378511623253742 1.09
0.378511623253742 1.22
0.378511623253742 1.16
0.378511623253742 1.15
0.378511623253742 1.07
0.378511623253742 1.07
0.378511623253742 1.20
0.378511623253742 1.07
0.378511623253742 1.14
0.378511623253742 1.09
0.378511623253742 1.11
0.378511623253742 1.13
0.378511623253742 1.11
0.378511623253742 1.06
0.378511623253742 1.07
0.378511623253742 1.15
0.378511623253742 1.05
0.378511623253742 1.10
0.378511623253742 1.06
0.378511623253742 1.09
0.378511623253742 1.12
0.378511623253742 1.10
0.378511623253742 1.11
0.378511623253742 1.09
0.378511623253742 1.11
0.378511623253742 1.16
0.378511623253742 1.11
0.378511623253742 1.13
0.378511623253742 1.08
0.378511623253742 1.10
0.378511623253742 1.09
